{
    "version": "0.4",
    "title": "About Us",
    "type": "page",
    "metadata": {
        "template_type": "single-page",
        "include_in_zip": "1",
        "elementor_pro_required": "1",
        "wp_page_template": "default"
    },
    "content": [
        {
            "id": "7d317c82",
            "settings": {
                "layout": "full_width",
                "gap": "wider",
                "custom_height": {
                    "unit": "px",
                    "size": 200,
                    "sizes": []
                },
                "overflow": "hidden",
                "background_background": "classic",
                "background_image": {
                    "url": "https:\/\/kit.detheme.com\/dexor\/wp-content\/uploads\/sites\/8\/2020\/08\/abstract-line.png",
                    "id": 382
                },
                "background_position": "initial",
                "background_xpos": {
                    "unit": "%",
                    "size": 19,
                    "sizes": []
                },
                "background_ypos": {
                    "unit": "%",
                    "size": 74,
                    "sizes": []
                },
                "background_repeat": "no-repeat",
                "background_size": "cover",
                "background_bg_width": {
                    "unit": "px",
                    "size": 469,
                    "sizes": []
                },
                "background_overlay_background": "classic",
                "background_overlay_opacity": {
                    "unit": "px",
                    "size": 0,
                    "sizes": []
                },
                "border_width": {
                    "unit": "px",
                    "top": "0",
                    "right": "40",
                    "bottom": "0",
                    "left": "40",
                    "isLinked": false
                },
                "border_color": "#FFFFFF",
                "padding": {
                    "unit": "px",
                    "top": "0",
                    "right": "0",
                    "bottom": "0",
                    "left": "0",
                    "isLinked": false
                },
                "border_width_tablet": {
                    "unit": "px",
                    "top": "0",
                    "right": "0",
                    "bottom": "0",
                    "left": "0",
                    "isLinked": true
                },
                "animation": "fadeIn",
                "animation_duration": "slow",
                "animation_delay": 100,
                "__globals__": {
                    "background_color": "globals\/colors?id=d3ae19d",
                    "background_overlay_color": "globals\/colors?id=d3ae19d"
                },
                "background_overlay_color": "#F2F2F2"
            },
            "elements": [
                {
                    "id": "2eb1f3e3",
                    "settings": {
                        "_column_size": 100,
                        "_inline_size": null,
                        "padding": {
                            "unit": "px",
                            "top": "128",
                            "right": "0",
                            "bottom": "128",
                            "left": "0",
                            "isLinked": false
                        },
                        "padding_tablet": {
                            "unit": "px",
                            "top": "96",
                            "right": "30",
                            "bottom": "96",
                            "left": "30",
                            "isLinked": false
                        }
                    },
                    "elements": [
                        {
                            "id": "2a153eac",
                            "settings": {
                                "space": {
                                    "unit": "px",
                                    "size": 325,
                                    "sizes": []
                                },
                                "_animation": "slideInLeft",
                                "animation_duration": "slow",
                                "_animation_delay": 500,
                                "_background_background": "classic",
                                "_position": "absolute",
                                "_offset_x": {
                                    "unit": "%",
                                    "size": 100,
                                    "sizes": []
                                },
                                "_offset_orientation_v": "end",
                                "_offset_y": {
                                    "unit": "%",
                                    "size": "",
                                    "sizes": []
                                },
                                "_offset_y_end": {
                                    "unit": "%",
                                    "size": -190,
                                    "sizes": []
                                },
                                "_offset_x_mobile": {
                                    "unit": "%",
                                    "size": 110,
                                    "sizes": []
                                },
                                "_offset_x_tablet": {
                                    "unit": "%",
                                    "size": 110,
                                    "sizes": []
                                },
                                "__globals__": {
                                    "_background_color": "globals\/colors?id=d3ae19d"
                                }
                            },
                            "elements": [],
                            "isInner": false,
                            "widgetType": "spacer",
                            "elType": "widget"
                        },
                        {
                            "id": "2bda4ff5",
                            "settings": {
                                "title": "About Us",
                                "header_size": "h1",
                                "align": "center",
                                "_z_index": 2,
                                "align_tablet": "center"
                            },
                            "elements": [],
                            "isInner": false,
                            "widgetType": "heading",
                            "elType": "widget"
                        }
                    ],
                    "isInner": false,
                    "elType": "column"
                }
            ],
            "isInner": false,
            "elType": "section"
        },
        {
            "id": "c4cf234",
            "settings": {
                "gap": "wider",
                "structure": "30",
                "padding": {
                    "unit": "px",
                    "top": "96",
                    "right": "0",
                    "bottom": "96",
                    "left": "0",
                    "isLinked": false
                },
                "padding_tablet": {
                    "unit": "px",
                    "top": "48",
                    "right": "0",
                    "bottom": "48",
                    "left": "0",
                    "isLinked": false
                },
                "background_background": "classic",
                "__globals__": {
                    "background_color": "globals\/colors?id=ec25634"
                },
                "z_index": 2
            },
            "elements": [
                {
                    "id": "669467ad",
                    "settings": {
                        "_column_size": 33,
                        "_inline_size": 39.371,
                        "background_background": "classic",
                        "background_position": "center left",
                        "background_repeat": "no-repeat",
                        "background_size": "contain",
                        "padding": {
                            "unit": "px",
                            "top": "0",
                            "right": "0",
                            "bottom": "0",
                            "left": "0",
                            "isLinked": false
                        },
                        "margin": {
                            "unit": "px",
                            "top": "0",
                            "right": "48",
                            "bottom": "0",
                            "left": "0",
                            "isLinked": false
                        },
                        "align": "flex-end",
                        "_inline_size_tablet": 100,
                        "background_position_tablet": "center center",
                        "margin_tablet": {
                            "unit": "px",
                            "top": "0",
                            "right": "0",
                            "bottom": "0",
                            "left": "0",
                            "isLinked": false
                        },
                        "background_size_tablet": "contain",
                        "background_size_mobile": "initial",
                        "background_bg_width_mobile": {
                            "unit": "%",
                            "size": 90,
                            "sizes": []
                        },
                        "content_position": "center",
                        "align_mobile": "center"
                    },
                    "elements": [
                        {
                            "id": "51e3367d",
                            "settings": {
                                "source": "external_url",
                                "source_external_url": {
                                    "url": "https:\/\/assets6.lottiefiles.com\/private_files\/lf30_hbnqw08y.json",
                                    "is_external": "",
                                    "nofollow": "",
                                    "custom_attributes": ""
                                },
                                "loop": "yes",
                                "_margin": {
                                    "unit": "px",
                                    "top": "0",
                                    "right": "-84",
                                    "bottom": "0",
                                    "left": "-111",
                                    "isLinked": false
                                },
                                "align_mobile": "center",
                                "width_mobile": {
                                    "unit": "%",
                                    "size": 93,
                                    "sizes": []
                                },
                                "align_tablet": "center",
                                "width_tablet": {
                                    "unit": "%",
                                    "size": 66,
                                    "sizes": []
                                },
                                "_margin_mobile": {
                                    "unit": "px",
                                    "top": "0",
                                    "right": "0",
                                    "bottom": "0",
                                    "left": "0",
                                    "isLinked": false
                                }
                            },
                            "elements": [],
                            "isInner": false,
                            "widgetType": "lottie",
                            "elType": "widget"
                        }
                    ],
                    "isInner": false,
                    "elType": "column"
                },
                {
                    "id": "17a1824a",
                    "settings": {
                        "_column_size": 33,
                        "_inline_size": 3
                    },
                    "elements": [],
                    "isInner": false,
                    "elType": "column"
                },
                {
                    "id": "51f80d7c",
                    "settings": {
                        "_column_size": 33,
                        "_inline_size": 57.216,
                        "content_position": "center",
                        "align": "flex-start",
                        "align_tablet": "flex-start",
                        "_inline_size_tablet": 100,
                        "align_mobile": "center"
                    },
                    "elements": [
                        {
                            "id": "3f32237",
                            "settings": {
                                "space": {
                                    "unit": "px",
                                    "size": 1,
                                    "sizes": []
                                }
                            },
                            "elements": [],
                            "isInner": false,
                            "widgetType": "spacer",
                            "elType": "widget"
                        },
                        {
                            "id": "438a2d33",
                            "settings": {
                                "title": "Great SEO needs great tools &\ngreat tools need skilled personnel",
                                "_element_width": "initial",
                                "_element_custom_width": {
                                    "unit": "px",
                                    "size": 651
                                },
                                "align_mobile": "center",
                                "_animation": "fadeInRight",
                                "_animation_delay": 800,
                                "_element_width_tablet": "initial",
                                "_element_custom_width_tablet": {
                                    "unit": "%",
                                    "size": 100
                                },
                                "align": "left",
                                "align_tablet": "left"
                            },
                            "elements": [],
                            "isInner": false,
                            "widgetType": "heading",
                            "elType": "widget"
                        },
                        {
                            "id": "3fd7e4dd",
                            "settings": {
                                "space": {
                                    "unit": "px",
                                    "size": 24,
                                    "sizes": []
                                }
                            },
                            "elements": [],
                            "isInner": false,
                            "widgetType": "spacer",
                            "elType": "widget"
                        },
                        {
                            "id": "68304540",
                            "settings": {
                                "_element_width": "initial",
                                "_element_custom_width": {
                                    "unit": "px",
                                    "size": 650,
                                    "sizes": []
                                },
                                "align_mobile": "center",
                                "align": "left",
                                "align_tablet": "left",
                                "editor": "<p>Aliquip ex ea commodo consequat. Duis aute irure dolor in reprehenderit in voluptate velit esse cillum dolore eu fugiat nulla pariatur.<\/p>",
                                "_animation": "fadeInRight"
                            },
                            "elements": [],
                            "isInner": false,
                            "widgetType": "text-editor",
                            "elType": "widget"
                        },
                        {
                            "id": "55669262",
                            "settings": {
                                "space": {
                                    "unit": "px",
                                    "size": 16,
                                    "sizes": []
                                }
                            },
                            "elements": [],
                            "isInner": false,
                            "widgetType": "spacer",
                            "elType": "widget"
                        },
                        {
                            "id": "155f2b4",
                            "settings": {
                                "icon_list": [
                                    {
                                        "text": "Etiam porta sempus lit ",
                                        "selected_icon": {
                                            "value": "icon dticon-checkmark-circle-outline",
                                            "library": "dticon"
                                        },
                                        "_id": "ad30faf"
                                    },
                                    {
                                        "text": "Praesent cursus magna",
                                        "selected_icon": {
                                            "value": "icon dticon-checkmark-circle-outline",
                                            "library": "dticon"
                                        },
                                        "_id": "0f966da"
                                    },
                                    {
                                        "text": "Nisl consectetur et",
                                        "selected_icon": {
                                            "value": "icon dticon-checkmark-circle-outline",
                                            "library": "dticon"
                                        },
                                        "_id": "d95a744"
                                    },
                                    {
                                        "text": "Magna vel scelerisque ",
                                        "selected_icon": {
                                            "value": "icon dticon-checkmark-circle-outline",
                                            "library": "dticon"
                                        },
                                        "_id": "3a9ed3f"
                                    }
                                ],
                                "space_between": {
                                    "unit": "px",
                                    "size": 5,
                                    "sizes": []
                                },
                                "icon_size": {
                                    "unit": "px",
                                    "size": 18,
                                    "sizes": []
                                },
                                "text_indent": {
                                    "unit": "px",
                                    "size": 16,
                                    "sizes": []
                                },
                                "_element_width": "auto",
                                "_element_custom_width": {
                                    "unit": "px",
                                    "size": 290,
                                    "sizes": []
                                },
                                "__globals__": {
                                    "icon_color": "globals\/colors?id=primary"
                                },
                                "icon_align": "left",
                                "_padding": {
                                    "unit": "px",
                                    "top": "0",
                                    "right": "048",
                                    "bottom": "0",
                                    "left": "0",
                                    "isLinked": false
                                }
                            },
                            "elements": [],
                            "isInner": false,
                            "widgetType": "icon-list",
                            "elType": "widget"
                        },
                        {
                            "id": "3a71872c",
                            "settings": {
                                "icon_list": [
                                    {
                                        "text": "Nisl consectetur et",
                                        "selected_icon": {
                                            "value": "icon dticon-checkmark-circle-outline",
                                            "library": "dticon"
                                        },
                                        "_id": "d95a744"
                                    },
                                    {
                                        "text": "Praesent commodo ",
                                        "selected_icon": {
                                            "value": "icon dticon-checkmark-circle-outline",
                                            "library": "dticon"
                                        },
                                        "_id": "0f966da"
                                    },
                                    {
                                        "text": "Etiam porta sem ",
                                        "selected_icon": {
                                            "value": "icon dticon-checkmark-circle-outline",
                                            "library": "dticon"
                                        },
                                        "_id": "ad30faf"
                                    },
                                    {
                                        "text": "Lorem upsum",
                                        "selected_icon": {
                                            "value": "icon dticon-checkmark-circle-outline",
                                            "library": "dticon"
                                        },
                                        "_id": "925591d"
                                    }
                                ],
                                "space_between": {
                                    "unit": "px",
                                    "size": 5,
                                    "sizes": []
                                },
                                "icon_size": {
                                    "unit": "px",
                                    "size": 18,
                                    "sizes": []
                                },
                                "text_indent": {
                                    "unit": "px",
                                    "size": 16,
                                    "sizes": []
                                },
                                "_element_width": "initial",
                                "_element_custom_width": {
                                    "unit": "px",
                                    "size": 300,
                                    "sizes": []
                                },
                                "__globals__": {
                                    "icon_color": "globals\/colors?id=primary"
                                },
                                "icon_align": "left",
                                "_margin_mobile": {
                                    "unit": "px",
                                    "top": "6",
                                    "right": "0",
                                    "bottom": "0",
                                    "left": "0",
                                    "isLinked": false
                                },
                                "_element_width_mobile": "initial",
                                "_element_custom_width_mobile": {
                                    "unit": "px",
                                    "size": 250,
                                    "sizes": []
                                }
                            },
                            "elements": [],
                            "isInner": false,
                            "widgetType": "icon-list",
                            "elType": "widget"
                        },
                        {
                            "id": "7ef01343",
                            "settings": {
                                "space": {
                                    "unit": "px",
                                    "size": 32,
                                    "sizes": []
                                }
                            },
                            "elements": [],
                            "isInner": false,
                            "widgetType": "spacer",
                            "elType": "widget"
                        },
                        {
                            "id": "61d41822",
                            "settings": {
                                "text": "Get Started",
                                "size": "md",
                                "selected_icon": {
                                    "value": "fas fa-chevron-right",
                                    "library": "fa-solid"
                                },
                                "icon_align": "right",
                                "typography_typography": "custom",
                                "typography_line_height": {
                                    "unit": "em",
                                    "size": 1,
                                    "sizes": []
                                },
                                "_margin": {
                                    "unit": "px",
                                    "top": "0",
                                    "right": "24",
                                    "bottom": "0",
                                    "left": "0",
                                    "isLinked": false
                                },
                                "_element_width": "auto",
                                "_element_custom_width": {
                                    "unit": "%",
                                    "size": 50,
                                    "sizes": []
                                },
                                "_margin_tablet": {
                                    "unit": "px",
                                    "top": "0",
                                    "right": "0",
                                    "bottom": "0",
                                    "left": "0",
                                    "isLinked": false
                                }
                            },
                            "elements": [],
                            "isInner": false,
                            "widgetType": "button",
                            "elType": "widget"
                        },
                        {
                            "id": "23760ec5",
                            "settings": {
                                "text": "Learn more",
                                "size": "md",
                                "selected_icon": {
                                    "value": "far fa-chart-bar",
                                    "library": "fa-regular"
                                },
                                "typography_typography": "custom",
                                "typography_line_height": {
                                    "unit": "em",
                                    "size": 1,
                                    "sizes": []
                                },
                                "background_color": "#02010100",
                                "_element_width": "auto",
                                "_element_custom_width": {
                                    "unit": "%",
                                    "size": 50,
                                    "sizes": []
                                },
                                "__globals__": {
                                    "button_text_color": "globals\/colors?id=primary"
                                },
                                "_element_width_tablet": "auto"
                            },
                            "elements": [],
                            "isInner": false,
                            "widgetType": "button",
                            "elType": "widget"
                        },
                        {
                            "id": "5330b779",
                            "settings": {
                                "space": {
                                    "unit": "px",
                                    "size": 1,
                                    "sizes": []
                                }
                            },
                            "elements": [],
                            "isInner": false,
                            "widgetType": "spacer",
                            "elType": "widget"
                        },
                        {
                            "id": "7bfe5945",
                            "settings": {
                                "text": "Divider",
                                "gap": {
                                    "unit": "px",
                                    "size": 32,
                                    "sizes": []
                                },
                                "_element_width": "initial",
                                "_element_custom_width": {
                                    "unit": "px",
                                    "size": 650,
                                    "sizes": []
                                },
                                "__globals__": {
                                    "color": "globals\/colors?id=785b64d"
                                }
                            },
                            "elements": [],
                            "isInner": false,
                            "widgetType": "divider",
                            "elType": "widget"
                        },
                        {
                            "id": "62a37f8a",
                            "settings": {
                                "space": {
                                    "unit": "px",
                                    "size": 1,
                                    "sizes": []
                                }
                            },
                            "elements": [],
                            "isInner": false,
                            "widgetType": "spacer",
                            "elType": "widget"
                        },
                        {
                            "id": "22fd4411",
                            "settings": {
                                "icon_list": [
                                    {
                                        "text": "Maecenas faucibus mollis interdum tiam porta sem malesuada magna mollis euismod duis mollis, est non commodo luctus, nisi erat porttitor ligula",
                                        "selected_icon": {
                                            "value": "far fa-lightbulb",
                                            "library": "fa-regular"
                                        },
                                        "_id": "9020f05"
                                    }
                                ],
                                "icon_typography_typography": "custom",
                                "icon_typography_font_size": {
                                    "unit": "px",
                                    "size": 14,
                                    "sizes": []
                                },
                                "_element_width": "initial",
                                "_element_custom_width": {
                                    "unit": "px",
                                    "size": 650,
                                    "sizes": []
                                },
                                "__globals__": {
                                    "icon_color": "globals\/colors?id=primary",
                                    "text_color": "globals\/colors?id=8fa36e4"
                                },
                                "icon_align": "left",
                                "icon_align_tablet": "left",
                                "icon_align_mobile": "center"
                            },
                            "elements": [],
                            "isInner": false,
                            "widgetType": "icon-list",
                            "elType": "widget"
                        }
                    ],
                    "isInner": false,
                    "elType": "column"
                }
            ],
            "isInner": false,
            "elType": "section"
        },
        {
            "id": "524ce4d7",
            "settings": {
                "gap": "no",
                "padding": {
                    "unit": "px",
                    "top": "0",
                    "right": "0",
                    "bottom": "0",
                    "left": "0",
                    "isLinked": ""
                },
                "layout": "full_width",
                "padding_tablet": {
                    "unit": "px",
                    "top": "48",
                    "right": "0",
                    "bottom": "48",
                    "left": "0",
                    "isLinked": ""
                },
                "shape_divider_top_width": {
                    "unit": "%",
                    "size": 110,
                    "sizes": []
                },
                "shape_divider_top_height": {
                    "unit": "px",
                    "size": 106,
                    "sizes": []
                },
                "__globals__": {
                    "shape_divider_top_color": "globals\/colors?id=primary",
                    "shape_divider_bottom_color": "globals\/colors?id=primary"
                }
            },
            "elements": [
                {
                    "id": "239760da",
                    "settings": {
                        "_column_size": "100"
                    },
                    "elements": [
                        {
                            "id": "b3b8829",
                            "settings": {
                                "gap": "wider",
                                "structure": "30",
                                "margin": {
                                    "unit": "px",
                                    "top": "0",
                                    "right": "0",
                                    "bottom": "0",
                                    "left": "0",
                                    "isLinked": ""
                                },
                                "reverse_order_mobile": "reverse-mobile"
                            },
                            "elements": [
                                {
                                    "id": "57d63a68",
                                    "settings": {
                                        "_column_size": "33",
                                        "padding_mobile": {
                                            "unit": "px",
                                            "top": "0",
                                            "right": "30",
                                            "bottom": "30",
                                            "left": "30",
                                            "isLinked": ""
                                        },
                                        "content_position": "center"
                                    },
                                    "elements": [
                                        {
                                            "id": "1bba8d13",
                                            "settings": {
                                                "title": "Nimbl was created by experienced marketers and property experts who recognized a harsh truth",
                                                "header_size": "div",
                                                "_margin": {
                                                    "unit": "px",
                                                    "top": "0",
                                                    "right": "0",
                                                    "bottom": "16",
                                                    "left": "0",
                                                    "isLinked": ""
                                                },
                                                "ekit_we_effect_on": "none",
                                                "ekit_we_css_animation_fx": "",
                                                "ekit_we_css_animation": "ekit-fade",
                                                "ekit_we_css_animation_tablet": "",
                                                "ekit_we_css_animation_mobile": "",
                                                "ekit_we_css_animation_speed": "5",
                                                "ekit_we_css_animation_iteration_count": "infinite",
                                                "ekit_we_css_animation_direction": "normal",
                                                "ekit_we_css_transform_fx": "",
                                                "ekit_we_css_transform_fx_translate_toggle": "",
                                                "ekit_we_css_transform_fx_translate_x": {
                                                    "unit": "px",
                                                    "size": "",
                                                    "sizes": []
                                                },
                                                "ekit_we_css_transform_fx_translate_x_tablet": {
                                                    "unit": "px",
                                                    "size": "",
                                                    "sizes": []
                                                },
                                                "ekit_we_css_transform_fx_translate_x_mobile": {
                                                    "unit": "px",
                                                    "size": "",
                                                    "sizes": []
                                                },
                                                "ekit_we_css_transform_fx_translate_y": {
                                                    "unit": "px",
                                                    "size": "",
                                                    "sizes": []
                                                },
                                                "ekit_we_css_transform_fx_translate_y_tablet": {
                                                    "unit": "px",
                                                    "size": "",
                                                    "sizes": []
                                                },
                                                "ekit_we_css_transform_fx_translate_y_mobile": {
                                                    "unit": "px",
                                                    "size": "",
                                                    "sizes": []
                                                },
                                                "ekit_we_css_transform_fx_rotate_toggle": "",
                                                "ekit_we_css_transform_fx_rotate_z": {
                                                    "unit": "px",
                                                    "size": "",
                                                    "sizes": []
                                                },
                                                "ekit_we_css_transform_fx_rotate_z_tablet": {
                                                    "unit": "px",
                                                    "size": "",
                                                    "sizes": []
                                                },
                                                "ekit_we_css_transform_fx_rotate_z_mobile": {
                                                    "unit": "px",
                                                    "size": "",
                                                    "sizes": []
                                                },
                                                "ekit_we_css_transform_fx_rotate_x": {
                                                    "unit": "px",
                                                    "size": "",
                                                    "sizes": []
                                                },
                                                "ekit_we_css_transform_fx_rotate_x_tablet": {
                                                    "unit": "px",
                                                    "size": "",
                                                    "sizes": []
                                                },
                                                "ekit_we_css_transform_fx_rotate_x_mobile": {
                                                    "unit": "px",
                                                    "size": "",
                                                    "sizes": []
                                                },
                                                "ekit_we_css_transform_fx_rotate_y": {
                                                    "unit": "px",
                                                    "size": "",
                                                    "sizes": []
                                                },
                                                "ekit_we_css_transform_fx_rotate_y_tablet": {
                                                    "unit": "px",
                                                    "size": "",
                                                    "sizes": []
                                                },
                                                "ekit_we_css_transform_fx_rotate_y_mobile": {
                                                    "unit": "px",
                                                    "size": "",
                                                    "sizes": []
                                                },
                                                "ekit_we_css_transform_fx_scale_toggle": "",
                                                "ekit_we_css_transform_fx_scale_x": {
                                                    "unit": "px",
                                                    "size": "1",
                                                    "sizes": []
                                                },
                                                "ekit_we_css_transform_fx_scale_x_tablet": {
                                                    "unit": "px",
                                                    "size": "",
                                                    "sizes": []
                                                },
                                                "ekit_we_css_transform_fx_scale_x_mobile": {
                                                    "unit": "px",
                                                    "size": "",
                                                    "sizes": []
                                                },
                                                "ekit_we_css_transform_fx_scale_y": {
                                                    "unit": "px",
                                                    "size": "1",
                                                    "sizes": []
                                                },
                                                "ekit_we_css_transform_fx_scale_y_tablet": {
                                                    "unit": "px",
                                                    "size": "",
                                                    "sizes": []
                                                },
                                                "ekit_we_css_transform_fx_scale_y_mobile": {
                                                    "unit": "px",
                                                    "size": "",
                                                    "sizes": []
                                                },
                                                "ekit_we_css_transform_fx_skew_toggle": "",
                                                "ekit_we_css_transform_fx_skew_x": {
                                                    "unit": "px",
                                                    "size": "",
                                                    "sizes": []
                                                },
                                                "ekit_we_css_transform_fx_skew_x_tablet": {
                                                    "unit": "px",
                                                    "size": "",
                                                    "sizes": []
                                                },
                                                "ekit_we_css_transform_fx_skew_x_mobile": {
                                                    "unit": "px",
                                                    "size": "",
                                                    "sizes": []
                                                },
                                                "ekit_we_css_transform_fx_skew_y": {
                                                    "unit": "px",
                                                    "size": "",
                                                    "sizes": []
                                                },
                                                "ekit_we_css_transform_fx_skew_y_tablet": {
                                                    "unit": "px",
                                                    "size": "",
                                                    "sizes": []
                                                },
                                                "ekit_we_css_transform_fx_skew_y_mobile": {
                                                    "unit": "px",
                                                    "size": "",
                                                    "sizes": []
                                                },
                                                "ekit_we_on_test_mode": "on",
                                                "ekit_we_tilt_maxtilt": "20",
                                                "ekit_we_tilt_scale": "1",
                                                "ekit_we_tilt_disableaxis": "",
                                                "ekit_we_mousemove_parallax_speed": "40",
                                                "ekit_we_scroll_animation": "translateY",
                                                "ekit_we_scroll_animation_value": "250",
                                                "ekit_we_scroll_smoothness": "700",
                                                "ekit_we_scroll_offsettop": "0",
                                                "ekit_we_scroll_offsetbottom": "0",
                                                "ekit_sticky": "",
                                                "ekit_sticky_on": [
                                                    "desktop",
                                                    "tablet",
                                                    "mobile"
                                                ],
                                                "ekit_sticky_offset": {
                                                    "unit": "px",
                                                    "size": "0",
                                                    "sizes": []
                                                },
                                                "ekit_sticky_effect_offset": {
                                                    "unit": "px",
                                                    "size": "0",
                                                    "sizes": []
                                                },
                                                "__globals__": {
                                                    "title_color": "globals\/colors?id=primary",
                                                    "typography_typography": "globals\/typography?id=text"
                                                },
                                                "align_mobile": "center",
                                                "_animation": "fadeInLeft"
                                            },
                                            "elements": [],
                                            "isInner": false,
                                            "widgetType": "heading",
                                            "elType": "widget"
                                        }
                                    ],
                                    "isInner": "1",
                                    "elType": "column"
                                },
                                {
                                    "id": "763ea5c",
                                    "settings": {
                                        "_column_size": "33",
                                        "_inline_size": "8.158",
                                        "_inline_size_tablet": "2"
                                    },
                                    "elements": [],
                                    "isInner": "1",
                                    "elType": "column"
                                },
                                {
                                    "id": "79db66d",
                                    "settings": {
                                        "_column_size": "33",
                                        "_inline_size": "58.174",
                                        "padding_mobile": {
                                            "unit": "px",
                                            "top": "30",
                                            "right": "30",
                                            "bottom": "0",
                                            "left": "30",
                                            "isLinked": ""
                                        },
                                        "_inline_size_tablet": "63"
                                    },
                                    "elements": [
                                        {
                                            "id": "392ac613",
                                            "settings": {
                                                "title": "How we do our job",
                                                "typography_font_size": {
                                                    "unit": "px",
                                                    "size": "70",
                                                    "sizes": []
                                                },
                                                "typography_line_height": {
                                                    "unit": "em",
                                                    "size": "1.2",
                                                    "sizes": []
                                                },
                                                "_margin": {
                                                    "unit": "px",
                                                    "top": "0",
                                                    "right": "0",
                                                    "bottom": "0",
                                                    "left": "0",
                                                    "isLinked": ""
                                                },
                                                "align_mobile": "center",
                                                "_animation": "fadeInRight"
                                            },
                                            "elements": [],
                                            "isInner": false,
                                            "widgetType": "heading",
                                            "elType": "widget"
                                        }
                                    ],
                                    "isInner": "1",
                                    "elType": "column"
                                }
                            ],
                            "isInner": "1",
                            "elType": "section"
                        },
                        {
                            "id": "6f41783",
                            "settings": {
                                "gap": "wider",
                                "structure": "30",
                                "margin": {
                                    "unit": "px",
                                    "top": "0",
                                    "right": "0",
                                    "bottom": "32",
                                    "left": "0",
                                    "isLinked": ""
                                }
                            },
                            "elements": [
                                {
                                    "id": "275598f4",
                                    "settings": {
                                        "_column_size": "33"
                                    },
                                    "elements": [
                                        {
                                            "id": "3bd28349",
                                            "settings": {
                                                "title": "",
                                                "percent": {
                                                    "unit": "%",
                                                    "size": "95",
                                                    "sizes": []
                                                },
                                                "inner_text": "SEO",
                                                "bar_bg_color": "#F3F3F3",
                                                "bar_border_radius": {
                                                    "unit": "px",
                                                    "size": "0",
                                                    "sizes": []
                                                },
                                                "bar_inner_typography_typography": "custom",
                                                "bar_inner_typography_font_size": {
                                                    "unit": "px",
                                                    "size": "14",
                                                    "sizes": []
                                                },
                                                "_margin": {
                                                    "unit": "px",
                                                    "top": "0",
                                                    "right": "0",
                                                    "bottom": "24",
                                                    "left": "0",
                                                    "isLinked": ""
                                                },
                                                "__globals__": {
                                                    "bar_color": "globals\/colors?id=primary"
                                                }
                                            },
                                            "elements": [],
                                            "isInner": false,
                                            "widgetType": "progress",
                                            "elType": "widget"
                                        },
                                        {
                                            "id": "1db506fb",
                                            "settings": {
                                                "title": "",
                                                "percent": {
                                                    "unit": "%",
                                                    "size": "90",
                                                    "sizes": []
                                                },
                                                "inner_text": "Big Data",
                                                "bar_bg_color": "#F3F3F3",
                                                "bar_border_radius": {
                                                    "unit": "px",
                                                    "size": "0",
                                                    "sizes": []
                                                },
                                                "bar_inner_typography_typography": "custom",
                                                "bar_inner_typography_font_size": {
                                                    "unit": "px",
                                                    "size": "14",
                                                    "sizes": []
                                                },
                                                "_margin": {
                                                    "unit": "px",
                                                    "top": "0",
                                                    "right": "0",
                                                    "bottom": "24",
                                                    "left": "0",
                                                    "isLinked": ""
                                                },
                                                "__globals__": {
                                                    "bar_color": "globals\/colors?id=primary"
                                                }
                                            },
                                            "elements": [],
                                            "isInner": false,
                                            "widgetType": "progress",
                                            "elType": "widget"
                                        },
                                        {
                                            "id": "33c737ae",
                                            "settings": {
                                                "title": "",
                                                "percent": {
                                                    "unit": "%",
                                                    "size": "78",
                                                    "sizes": []
                                                },
                                                "inner_text": "Web Development",
                                                "bar_bg_color": "#F3F3F3",
                                                "bar_border_radius": {
                                                    "unit": "px",
                                                    "size": "0",
                                                    "sizes": []
                                                },
                                                "bar_inner_typography_typography": "custom",
                                                "bar_inner_typography_font_size": {
                                                    "unit": "px",
                                                    "size": "14",
                                                    "sizes": []
                                                },
                                                "_margin": {
                                                    "unit": "px",
                                                    "top": "0",
                                                    "right": "0",
                                                    "bottom": "24",
                                                    "left": "0",
                                                    "isLinked": ""
                                                },
                                                "__globals__": {
                                                    "bar_color": "globals\/colors?id=primary"
                                                }
                                            },
                                            "elements": [],
                                            "isInner": false,
                                            "widgetType": "progress",
                                            "elType": "widget"
                                        },
                                        {
                                            "id": "55f79829",
                                            "settings": {
                                                "title": "",
                                                "percent": {
                                                    "unit": "%",
                                                    "size": "99",
                                                    "sizes": []
                                                },
                                                "inner_text": "Apps Development",
                                                "bar_bg_color": "#F3F3F3",
                                                "bar_border_radius": {
                                                    "unit": "px",
                                                    "size": "0",
                                                    "sizes": []
                                                },
                                                "bar_inner_typography_typography": "custom",
                                                "bar_inner_typography_font_size": {
                                                    "unit": "px",
                                                    "size": "14",
                                                    "sizes": []
                                                },
                                                "_margin": {
                                                    "unit": "px",
                                                    "top": "0",
                                                    "right": "0",
                                                    "bottom": "0",
                                                    "left": "0",
                                                    "isLinked": ""
                                                },
                                                "__globals__": {
                                                    "bar_color": "globals\/colors?id=primary"
                                                }
                                            },
                                            "elements": [],
                                            "isInner": false,
                                            "widgetType": "progress",
                                            "elType": "widget"
                                        }
                                    ],
                                    "isInner": "1",
                                    "elType": "column"
                                },
                                {
                                    "id": "3ae71065",
                                    "settings": {
                                        "_column_size": "33",
                                        "_inline_size": "8",
                                        "_inline_size_tablet": "2"
                                    },
                                    "elements": [],
                                    "isInner": "1",
                                    "elType": "column"
                                },
                                {
                                    "id": "6e0ae585",
                                    "settings": {
                                        "_column_size": "33",
                                        "_inline_size": "58.332",
                                        "_inline_size_tablet": "63"
                                    },
                                    "elements": [
                                        {
                                            "id": "6bc52d22",
                                            "settings": {
                                                "editor": "<p>Integer posuere erat a ante venenatis dapibus posuere velit aliquet. Morbi leo risus, porta ac consectetur ac, vestibulum at eros. Vivamus sagittis lacus vel augue laoreet rutrum faucibus dolor auctor. Cras justo odio, dapibus ac facilisis in, egestas eget quam. Curabitur blandit tempus porttitor. Cras mattis consectetur purus sit amet fermentum.<\/p><p>Donec id elit non mi porta gravida at eget metus. Donec id elit non mi porta gravida at eget metus. Fusce dapibus, tellus ac cursus commodo, tortor mauris condimentum nibh, ut fermentum massa justo sit amet risus. Curabitur blandit tempus porttitor. Maecenas faucibus mollis interdum. Praesent commodo cursus magna, vel scelerisque nisl consectetur et.<\/p>",
                                                "text_columns": "2",
                                                "column_gap": {
                                                    "unit": "px",
                                                    "size": "45",
                                                    "sizes": []
                                                },
                                                "text_columns_mobile": "1",
                                                "align_mobile": "center"
                                            },
                                            "elements": [],
                                            "isInner": false,
                                            "widgetType": "text-editor",
                                            "elType": "widget"
                                        }
                                    ],
                                    "isInner": "1",
                                    "elType": "column"
                                }
                            ],
                            "isInner": "1",
                            "elType": "section"
                        }
                    ],
                    "isInner": "",
                    "elType": "column"
                }
            ],
            "isInner": "",
            "elType": "section"
        },
        {
            "id": "55a8a423",
            "settings": {
                "gap": "no",
                "padding": {
                    "unit": "px",
                    "top": "0",
                    "right": "0",
                    "bottom": "96",
                    "left": "0",
                    "isLinked": false
                }
            },
            "elements": [
                {
                    "id": "7cdea143",
                    "settings": {
                        "_column_size": 100,
                        "_inline_size": null
                    },
                    "elements": [
                        {
                            "id": "519d3a8c",
                            "settings": {
                                "structure": "60",
                                "margin": {
                                    "unit": "px",
                                    "top": "0",
                                    "right": 0,
                                    "bottom": "0",
                                    "left": 0,
                                    "isLinked": false
                                }
                            },
                            "elements": [
                                {
                                    "id": "b197d56",
                                    "settings": {
                                        "_column_size": 16,
                                        "_inline_size": null,
                                        "content_position": "center",
                                        "_inline_size_mobile": 50
                                    },
                                    "elements": [
                                        {
                                            "id": "3f716b60",
                                            "settings": {
                                                "image": {
                                                    "url": "https:\/\/kit.detheme.com\/nimbl\/wp-content\/uploads\/sites\/34\/2020\/11\/Asset-10.png",
                                                    "id": 89
                                                },
                                                "width": {
                                                    "unit": "%",
                                                    "size": 70,
                                                    "sizes": []
                                                },
                                                "opacity": {
                                                    "unit": "px",
                                                    "size": 0.35,
                                                    "sizes": []
                                                },
                                                "opacity_hover": {
                                                    "unit": "px",
                                                    "size": 1,
                                                    "sizes": []
                                                },
                                                "background_hover_transition": {
                                                    "unit": "px",
                                                    "size": 0.7,
                                                    "sizes": []
                                                },
                                                "link_to": "custom",
                                                "link": {
                                                    "url": "#",
                                                    "is_external": "",
                                                    "nofollow": "",
                                                    "custom_attributes": ""
                                                }
                                            },
                                            "elements": [],
                                            "isInner": false,
                                            "widgetType": "image",
                                            "elType": "widget"
                                        }
                                    ],
                                    "isInner": true,
                                    "elType": "column"
                                },
                                {
                                    "id": "35b2a82b",
                                    "settings": {
                                        "_column_size": 16,
                                        "_inline_size": null,
                                        "content_position": "center",
                                        "_inline_size_mobile": 50
                                    },
                                    "elements": [
                                        {
                                            "id": "7ea0544c",
                                            "settings": {
                                                "image": {
                                                    "url": "https:\/\/kit.detheme.com\/nimbl\/wp-content\/uploads\/sites\/34\/2020\/11\/Asset-4.png",
                                                    "id": 84
                                                },
                                                "width": {
                                                    "unit": "%",
                                                    "size": 70,
                                                    "sizes": []
                                                },
                                                "opacity": {
                                                    "unit": "px",
                                                    "size": 0.35,
                                                    "sizes": []
                                                },
                                                "opacity_hover": {
                                                    "unit": "px",
                                                    "size": 1,
                                                    "sizes": []
                                                },
                                                "background_hover_transition": {
                                                    "unit": "px",
                                                    "size": 0.7,
                                                    "sizes": []
                                                },
                                                "link_to": "custom",
                                                "link": {
                                                    "url": "#",
                                                    "is_external": "",
                                                    "nofollow": "",
                                                    "custom_attributes": ""
                                                }
                                            },
                                            "elements": [],
                                            "isInner": false,
                                            "widgetType": "image",
                                            "elType": "widget"
                                        }
                                    ],
                                    "isInner": true,
                                    "elType": "column"
                                },
                                {
                                    "id": "4b585b5f",
                                    "settings": {
                                        "_column_size": 16,
                                        "_inline_size": null,
                                        "content_position": "center",
                                        "_inline_size_mobile": 50
                                    },
                                    "elements": [
                                        {
                                            "id": "32c6475a",
                                            "settings": {
                                                "image": {
                                                    "url": "https:\/\/kit.detheme.com\/nimbl\/wp-content\/uploads\/sites\/34\/2020\/11\/Asset-9.png",
                                                    "id": 88
                                                },
                                                "width": {
                                                    "unit": "%",
                                                    "size": 70,
                                                    "sizes": []
                                                },
                                                "opacity": {
                                                    "unit": "px",
                                                    "size": 0.35,
                                                    "sizes": []
                                                },
                                                "opacity_hover": {
                                                    "unit": "px",
                                                    "size": 1,
                                                    "sizes": []
                                                },
                                                "background_hover_transition": {
                                                    "unit": "px",
                                                    "size": 0.7,
                                                    "sizes": []
                                                },
                                                "link_to": "custom",
                                                "link": {
                                                    "url": "#",
                                                    "is_external": "",
                                                    "nofollow": "",
                                                    "custom_attributes": ""
                                                }
                                            },
                                            "elements": [],
                                            "isInner": false,
                                            "widgetType": "image",
                                            "elType": "widget"
                                        }
                                    ],
                                    "isInner": true,
                                    "elType": "column"
                                },
                                {
                                    "id": "1883ae15",
                                    "settings": {
                                        "_column_size": 16,
                                        "_inline_size": null,
                                        "content_position": "center",
                                        "_inline_size_mobile": 50
                                    },
                                    "elements": [
                                        {
                                            "id": "3c6ae3d4",
                                            "settings": {
                                                "image": {
                                                    "url": "https:\/\/kit.detheme.com\/nimbl\/wp-content\/uploads\/sites\/34\/2020\/11\/Asset-6.png",
                                                    "id": 86
                                                },
                                                "width": {
                                                    "unit": "%",
                                                    "size": 70,
                                                    "sizes": []
                                                },
                                                "opacity": {
                                                    "unit": "px",
                                                    "size": 0.35,
                                                    "sizes": []
                                                },
                                                "opacity_hover": {
                                                    "unit": "px",
                                                    "size": 1,
                                                    "sizes": []
                                                },
                                                "background_hover_transition": {
                                                    "unit": "px",
                                                    "size": 0.7,
                                                    "sizes": []
                                                },
                                                "link_to": "custom",
                                                "link": {
                                                    "url": "#",
                                                    "is_external": "",
                                                    "nofollow": "",
                                                    "custom_attributes": ""
                                                }
                                            },
                                            "elements": [],
                                            "isInner": false,
                                            "widgetType": "image",
                                            "elType": "widget"
                                        }
                                    ],
                                    "isInner": true,
                                    "elType": "column"
                                },
                                {
                                    "id": "42ef30dc",
                                    "settings": {
                                        "_column_size": 16,
                                        "_inline_size": null,
                                        "content_position": "center",
                                        "_inline_size_mobile": 50
                                    },
                                    "elements": [
                                        {
                                            "id": "497a6c81",
                                            "settings": {
                                                "image": {
                                                    "url": "https:\/\/kit.detheme.com\/nimbl\/wp-content\/uploads\/sites\/34\/2020\/11\/Asset-8.png",
                                                    "id": 87
                                                },
                                                "width": {
                                                    "unit": "%",
                                                    "size": 70,
                                                    "sizes": []
                                                },
                                                "opacity": {
                                                    "unit": "px",
                                                    "size": 0.35,
                                                    "sizes": []
                                                },
                                                "opacity_hover": {
                                                    "unit": "px",
                                                    "size": 1,
                                                    "sizes": []
                                                },
                                                "background_hover_transition": {
                                                    "unit": "px",
                                                    "size": 0.7,
                                                    "sizes": []
                                                },
                                                "link_to": "custom",
                                                "link": {
                                                    "url": "#",
                                                    "is_external": "",
                                                    "nofollow": "",
                                                    "custom_attributes": ""
                                                }
                                            },
                                            "elements": [],
                                            "isInner": false,
                                            "widgetType": "image",
                                            "elType": "widget"
                                        }
                                    ],
                                    "isInner": true,
                                    "elType": "column"
                                },
                                {
                                    "id": "202e8ebd",
                                    "settings": {
                                        "_column_size": 16,
                                        "_inline_size": null,
                                        "content_position": "center",
                                        "_inline_size_mobile": 50
                                    },
                                    "elements": [
                                        {
                                            "id": "2d85e2f7",
                                            "settings": {
                                                "image": {
                                                    "url": "https:\/\/kit.detheme.com\/nimbl\/wp-content\/uploads\/sites\/34\/2020\/11\/Asset-13.png",
                                                    "id": 92
                                                },
                                                "width": {
                                                    "unit": "%",
                                                    "size": 70,
                                                    "sizes": []
                                                },
                                                "opacity": {
                                                    "unit": "px",
                                                    "size": 0.35,
                                                    "sizes": []
                                                },
                                                "opacity_hover": {
                                                    "unit": "px",
                                                    "size": 1,
                                                    "sizes": []
                                                },
                                                "background_hover_transition": {
                                                    "unit": "px",
                                                    "size": 0.7,
                                                    "sizes": []
                                                },
                                                "link_to": "custom",
                                                "link": {
                                                    "url": "#",
                                                    "is_external": "",
                                                    "nofollow": "",
                                                    "custom_attributes": ""
                                                }
                                            },
                                            "elements": [],
                                            "isInner": false,
                                            "widgetType": "image",
                                            "elType": "widget"
                                        }
                                    ],
                                    "isInner": true,
                                    "elType": "column"
                                }
                            ],
                            "isInner": true,
                            "elType": "section"
                        }
                    ],
                    "isInner": false,
                    "elType": "column"
                }
            ],
            "isInner": false,
            "elType": "section"
        },
        {
            "id": "27324abc",
            "settings": {
                "gap": "no",
                "padding": {
                    "unit": "px",
                    "top": "0",
                    "right": "0",
                    "bottom": "96",
                    "left": "0",
                    "isLinked": false
                },
                "padding_tablet": {
                    "unit": "px",
                    "top": "48",
                    "right": "0",
                    "bottom": "48",
                    "left": "0",
                    "isLinked": false
                },
                "layout": "full_width",
                "background_background": "classic",
                "shape_divider_top": "waves",
                "shape_divider_top_flip": "yes",
                "__globals__": {
                    "background_color": "globals\/colors?id=d3ae19d"
                }
            },
            "elements": [
                {
                    "id": "7eaa4bd0",
                    "settings": {
                        "_column_size": 100,
                        "_inline_size": null,
                        "content_position": "center",
                        "align": "center"
                    },
                    "elements": [
                        {
                            "id": "30e5f935",
                            "settings": {
                                "gap": "no",
                                "margin": {
                                    "unit": "px",
                                    "top": "0",
                                    "right": 0,
                                    "bottom": "0",
                                    "left": 0,
                                    "isLinked": false
                                }
                            },
                            "elements": [
                                {
                                    "id": "23f53bec",
                                    "settings": {
                                        "_column_size": 100,
                                        "_inline_size": null,
                                        "content_position": "center",
                                        "align": "center"
                                    },
                                    "elements": [
                                        {
                                            "id": "6743d479",
                                            "settings": {
                                                "source": "external_url",
                                                "source_external_url": {
                                                    "url": "https:\/\/assets10.lottiefiles.com\/packages\/lf20_oxPuRF.json",
                                                    "is_external": "",
                                                    "nofollow": "",
                                                    "custom_attributes": ""
                                                },
                                                "loop": "yes",
                                                "width": {
                                                    "unit": "px",
                                                    "size": 71,
                                                    "sizes": []
                                                },
                                                "css_filters_css_filter": "custom",
                                                "css_filters_saturate": {
                                                    "unit": "px",
                                                    "size": 194,
                                                    "sizes": []
                                                },
                                                "css_filters_hue": {
                                                    "unit": "px",
                                                    "size": 320,
                                                    "sizes": []
                                                },
                                                "_margin": {
                                                    "unit": "px",
                                                    "top": "0",
                                                    "right": "0",
                                                    "bottom": "-32",
                                                    "left": "0",
                                                    "isLinked": false
                                                },
                                                "_element_width": "auto",
                                                "link_to": "custom",
                                                "_position": "absolute",
                                                "_offset_x": {
                                                    "unit": "%",
                                                    "size": "",
                                                    "sizes": []
                                                },
                                                "_offset_y": {
                                                    "unit": "%",
                                                    "size": "",
                                                    "sizes": []
                                                },
                                                "__dynamic__": {
                                                    "custom_link": "[elementor-tag id=\"a7f02d8\" name=\"lightbox\" settings=\"%7B%22type%22%3A%22video%22%2C%22video_url%22%3A%22https%3A%2F%2Fwww.youtube.com%2Fwatch%3Fv%3DXHOmBV4js_E%22%7D\"]"
                                                }
                                            },
                                            "elements": [],
                                            "isInner": false,
                                            "widgetType": "lottie",
                                            "elType": "widget"
                                        },
                                        {
                                            "id": "858a72a",
                                            "settings": {
                                                "source": "external_url",
                                                "source_external_url": {
                                                    "url": "https:\/\/assets6.lottiefiles.com\/private_files\/lf30_9z6ypjj3.json",
                                                    "is_external": "",
                                                    "nofollow": "",
                                                    "custom_attributes": ""
                                                },
                                                "loop": "yes",
                                                "__globals__": {
                                                    "_background_color": "globals\/colors?id=d3ae19d"
                                                }
                                            },
                                            "elements": [],
                                            "isInner": false,
                                            "widgetType": "lottie",
                                            "elType": "widget"
                                        }
                                    ],
                                    "isInner": true,
                                    "elType": "column"
                                }
                            ],
                            "isInner": true,
                            "elType": "section"
                        }
                    ],
                    "isInner": false,
                    "elType": "column"
                }
            ],
            "isInner": false,
            "elType": "section"
        }
    ]
}