{
    "version": "0.4",
    "title": "Header",
    "type": "header",
    "metadata": {
        "template_type": "section-header",
        "include_in_zip": "1",
        "elementor_pro_required": "1",
        "elementor_library_type": "header",
        "elementor_pro_conditions": [
            "include\/general"
        ],
        "additional_template_information": [
            "This is a \"Header\" template for Elementor Pro.",
            "This template will display on: Entire Site."
        ],
        "wp_page_template": "default"
    },
    "content": [
        {
            "id": "4d20ef8",
            "settings": {
                "gap": "wider",
                "structure": "20",
                "z_index": "99",
                "padding_mobile": {
                    "unit": "px",
                    "top": "12",
                    "right": "0",
                    "bottom": "12",
                    "left": "0",
                    "isLinked": ""
                }
            },
            "elements": [
                {
                    "id": "59c9da57",
                    "settings": {
                        "_column_size": "50",
                        "_inline_size": 13.532,
                        "_inline_size_mobile": "30",
                        "content_position_mobile": "center",
                        "padding_mobile": {
                            "unit": "px",
                            "top": "0",
                            "right": "0",
                            "bottom": "0",
                            "left": "30",
                            "isLinked": ""
                        },
                        "content_position": "center",
                        "_inline_size_tablet": 30
                    },
                    "elements": [
                        {
                            "id": "68211a7d",
                            "settings": {
                                "image": {
                                    "url": "https:\/\/kit.detheme.com\/nimbl\/wp-content\/uploads\/sites\/34\/2020\/11\/dark-1.png",
                                    "id": 400
                                },
                                "align": "left",
                                "width": {
                                    "unit": "px",
                                    "size": 82,
                                    "sizes": []
                                }
                            },
                            "elements": [],
                            "isInner": false,
                            "widgetType": "image",
                            "elType": "widget"
                        }
                    ],
                    "isInner": "",
                    "elType": "column"
                },
                {
                    "id": "3fde3e71",
                    "settings": {
                        "_column_size": "50",
                        "_inline_size": 86.468,
                        "content_position": "center",
                        "align": "flex-end",
                        "_inline_size_mobile": "70",
                        "padding_mobile": {
                            "unit": "px",
                            "top": "0",
                            "right": "30",
                            "bottom": "0",
                            "left": "0",
                            "isLinked": ""
                        },
                        "align_mobile": "flex-end",
                        "_inline_size_tablet": 70
                    },
                    "elements": [
                        {
                            "id": "24b3d9cb",
                            "settings": {
                                "menu_typography_typography": "custom",
                                "menu_typography_font_size": {
                                    "unit": "px",
                                    "size": "15",
                                    "sizes": []
                                },
                                "menu_typography_font_weight": "600",
                                "padding_horizontal_menu_item": {
                                    "unit": "px",
                                    "size": "0",
                                    "sizes": []
                                },
                                "menu_space_between": {
                                    "unit": "px",
                                    "size": 40,
                                    "sizes": []
                                },
                                "__globals__": {
                                    "color_menu_item": "globals\/colors?id=secondary",
                                    "dropdown_border_color": "globals\/colors?id=ec25634",
                                    "toggle_background_color": "globals\/colors?id=primary",
                                    "toggle_color": "globals\/colors?id=ec25634",
                                    "color_menu_item_hover": "globals\/colors?id=accent",
                                    "color_menu_item_active": "globals\/colors?id=accent",
                                    "background_color_dropdown_item_hover": "globals\/colors?id=07414c8",
                                    "color_dropdown_item_hover": "globals\/colors?id=accent",
                                    "color_dropdown_item_active": "globals\/colors?id=accent",
                                    "toggle_color_hover": "globals\/colors?id=ec25634",
                                    "toggle_background_color_hover": "globals\/colors?id=secondary"
                                },
                                "indicator": "chevron",
                                "dropdown_typography_typography": "custom",
                                "dropdown_typography_font_size": {
                                    "unit": "px",
                                    "size": "15",
                                    "sizes": []
                                },
                                "dropdown_typography_font_weight": "600",
                                "dropdown_border_border": "solid",
                                "dropdown_border_width": {
                                    "unit": "px",
                                    "top": "16",
                                    "right": "8",
                                    "bottom": "16",
                                    "left": "4",
                                    "isLinked": ""
                                },
                                "dropdown_border_radius": {
                                    "unit": "px",
                                    "top": "3",
                                    "right": "3",
                                    "bottom": "3",
                                    "left": "3",
                                    "isLinked": "1"
                                },
                                "dropdown_box_shadow_box_shadow_type": "yes",
                                "dropdown_box_shadow_box_shadow": {
                                    "horizontal": "0",
                                    "vertical": "0",
                                    "blur": "46",
                                    "spread": "-10",
                                    "color": "rgba(0, 0, 0, 0.1)"
                                },
                                "padding_vertical_dropdown_item": {
                                    "unit": "px",
                                    "size": "8",
                                    "sizes": []
                                },
                                "align_items": "right",
                                "full_width": "stretch",
                                "_element_width_tablet": "auto",
                                "pointer": "none",
                                "padding_horizontal_dropdown_item_mobile": {
                                    "unit": "px",
                                    "size": "27",
                                    "sizes": []
                                },
                                "_margin": {
                                    "unit": "px",
                                    "top": "0",
                                    "right": "48",
                                    "bottom": "0",
                                    "left": "0",
                                    "isLinked": ""
                                },
                                "_element_width": "auto",
                                "_margin_mobile": {
                                    "unit": "px",
                                    "top": "0",
                                    "right": "0",
                                    "bottom": "0",
                                    "left": "0",
                                    "isLinked": ""
                                },
                                "_margin_tablet": {
                                    "unit": "px",
                                    "top": "0",
                                    "right": "24",
                                    "bottom": "0",
                                    "left": "0",
                                    "isLinked": false
                                },
                                "color_menu_item_hover": "#5D4B94",
                                "color_menu_item_active": "#715AA2",
                                "color_dropdown_item_hover": "#715AA2",
                                "background_color_dropdown_item_hover": "#FFFFFF00",
                                "color_dropdown_item_active": "#715AA2",
                                "dropdown_border_color": "#FFFFFF",
                                "toggle_color": "#FFFFFF",
                                "toggle_background_color": "#715AA2"
                            },
                            "elements": [],
                            "isInner": false,
                            "widgetType": "nav-menu",
                            "elType": "widget"
                        },
                        {
                            "id": "1f9e5686",
                            "settings": {
                                "text": "Free trial",
                                "_element_width": "auto",
                                "_margin": {
                                    "unit": "px",
                                    "top": "0",
                                    "right": "0",
                                    "bottom": "0",
                                    "left": "0",
                                    "isLinked": ""
                                },
                                "_margin_mobile": {
                                    "unit": "%",
                                    "top": "-100",
                                    "right": "0",
                                    "bottom": "0",
                                    "left": "0",
                                    "isLinked": ""
                                },
                                "hide_mobile": "hidden-phone",
                                "link": {
                                    "url": "https:\/\/kit.detheme.com\/toiv\/?elementor_library=login",
                                    "is_external": "",
                                    "nofollow": "",
                                    "custom_attributes": ""
                                }
                            },
                            "elements": [],
                            "isInner": false,
                            "widgetType": "button",
                            "elType": "widget"
                        },
                        {
                            "id": "65d2a5ad",
                            "settings": {
                                "selected_icon": {
                                    "value": "fas fa-grip-lines",
                                    "library": "fa-solid"
                                },
                                "align_mobile": "right",
                                "size": {
                                    "unit": "px",
                                    "size": 16,
                                    "sizes": []
                                },
                                "_element_width": "initial",
                                "_element_custom_width": {
                                    "unit": "px",
                                    "size": "70",
                                    "sizes": []
                                },
                                "__globals__": {
                                    "primary_color": "globals\/colors?id=secondary"
                                },
                                "__dynamic__": {
                                    "link": "[elementor-tag id=\"e7e51b4\" name=\"popup\" settings=\"%7B%22popup%22%3A%22603%22%7D\"]"
                                },
                                "_margin": {
                                    "unit": "px",
                                    "top": "0",
                                    "right": "0",
                                    "bottom": "-8",
                                    "left": "0",
                                    "isLinked": false
                                },
                                "_margin_mobile": {
                                    "unit": "px",
                                    "top": "-100",
                                    "right": "0",
                                    "bottom": "0",
                                    "left": "0",
                                    "isLinked": false
                                },
                                "_padding_mobile": {
                                    "unit": "px",
                                    "top": "0",
                                    "right": "0",
                                    "bottom": "0",
                                    "left": "0",
                                    "isLinked": false
                                },
                                "_element_width_mobile": "initial",
                                "_element_custom_width_mobile": {
                                    "unit": "px",
                                    "size": 0,
                                    "sizes": []
                                }
                            },
                            "elements": [],
                            "isInner": false,
                            "widgetType": "icon",
                            "elType": "widget"
                        }
                    ],
                    "isInner": "",
                    "elType": "column"
                }
            ],
            "isInner": "",
            "elType": "section"
        }
    ]
}