{
    "version": "0.4",
    "title": "Our Process",
    "type": "page",
    "metadata": {
        "template_type": "single-page",
        "include_in_zip": "1",
        "elementor_pro_required": "1",
        "wp_page_template": "default"
    },
    "content": [
        {
            "id": "323a730a",
            "settings": {
                "layout": "full_width",
                "gap": "wider",
                "custom_height": {
                    "unit": "px",
                    "size": 200,
                    "sizes": []
                },
                "overflow": "hidden",
                "background_background": "classic",
                "background_image": {
                    "url": "https:\/\/kit.detheme.com\/dexor\/wp-content\/uploads\/sites\/8\/2020\/08\/abstract-line.png",
                    "id": 382
                },
                "background_position": "initial",
                "background_xpos": {
                    "unit": "%",
                    "size": 19,
                    "sizes": []
                },
                "background_ypos": {
                    "unit": "%",
                    "size": 74,
                    "sizes": []
                },
                "background_repeat": "no-repeat",
                "background_size": "cover",
                "background_bg_width": {
                    "unit": "px",
                    "size": 469,
                    "sizes": []
                },
                "background_overlay_background": "classic",
                "background_overlay_opacity": {
                    "unit": "px",
                    "size": 0,
                    "sizes": []
                },
                "border_width": {
                    "unit": "px",
                    "top": "0",
                    "right": "40",
                    "bottom": "0",
                    "left": "40",
                    "isLinked": false
                },
                "border_color": "#FFFFFF",
                "padding": {
                    "unit": "px",
                    "top": "0",
                    "right": "0",
                    "bottom": "0",
                    "left": "0",
                    "isLinked": false
                },
                "border_width_tablet": {
                    "unit": "px",
                    "top": "0",
                    "right": "0",
                    "bottom": "0",
                    "left": "0",
                    "isLinked": true
                },
                "animation": "fadeIn",
                "animation_duration": "slow",
                "animation_delay": 100,
                "__globals__": {
                    "background_color": "globals\/colors?id=d3ae19d",
                    "background_overlay_color": "globals\/colors?id=d3ae19d"
                },
                "background_overlay_color": "#F2F2F2"
            },
            "elements": [
                {
                    "id": "3cfabf02",
                    "settings": {
                        "_column_size": 100,
                        "_inline_size": null,
                        "padding": {
                            "unit": "px",
                            "top": "128",
                            "right": "0",
                            "bottom": "128",
                            "left": "0",
                            "isLinked": false
                        },
                        "padding_tablet": {
                            "unit": "px",
                            "top": "96",
                            "right": "30",
                            "bottom": "96",
                            "left": "30",
                            "isLinked": false
                        }
                    },
                    "elements": [
                        {
                            "id": "53b21fdc",
                            "settings": {
                                "space": {
                                    "unit": "px",
                                    "size": 325,
                                    "sizes": []
                                },
                                "_animation": "slideInLeft",
                                "animation_duration": "slow",
                                "_animation_delay": 500,
                                "_background_background": "classic",
                                "_position": "absolute",
                                "_offset_x": {
                                    "unit": "%",
                                    "size": 100,
                                    "sizes": []
                                },
                                "_offset_orientation_v": "end",
                                "_offset_y": {
                                    "unit": "%",
                                    "size": "",
                                    "sizes": []
                                },
                                "_offset_y_end": {
                                    "unit": "%",
                                    "size": -190,
                                    "sizes": []
                                },
                                "_offset_x_mobile": {
                                    "unit": "%",
                                    "size": 110,
                                    "sizes": []
                                },
                                "_offset_x_tablet": {
                                    "unit": "%",
                                    "size": 110,
                                    "sizes": []
                                },
                                "__globals__": {
                                    "_background_color": "globals\/colors?id=d3ae19d"
                                }
                            },
                            "elements": [],
                            "isInner": false,
                            "widgetType": "spacer",
                            "elType": "widget"
                        },
                        {
                            "id": "657c1c39",
                            "settings": {
                                "title": "Our Process",
                                "header_size": "h1",
                                "align": "center",
                                "_z_index": 2,
                                "align_tablet": "center",
                                "_animation": "fadeInDown"
                            },
                            "elements": [],
                            "isInner": false,
                            "widgetType": "heading",
                            "elType": "widget"
                        }
                    ],
                    "isInner": false,
                    "elType": "column"
                }
            ],
            "isInner": false,
            "elType": "section"
        },
        {
            "id": "49b2e363",
            "settings": {
                "structure": "30",
                "gap": "wider",
                "padding": {
                    "unit": "px",
                    "top": "96",
                    "right": "0",
                    "bottom": "96",
                    "left": "0",
                    "isLinked": ""
                },
                "padding_tablet": {
                    "unit": "px",
                    "top": "48",
                    "right": "0",
                    "bottom": "48",
                    "left": "0",
                    "isLinked": ""
                },
                "background_background": "classic",
                "__globals__": {
                    "background_color": "globals\/colors?id=ec25634"
                },
                "reverse_order_mobile": "reverse-mobile"
            },
            "elements": [
                {
                    "id": "9decaf3",
                    "settings": {
                        "_column_size": "33",
                        "_inline_size": "35.614",
                        "content_position": "center",
                        "_inline_size_tablet": "100",
                        "align_tablet": "center"
                    },
                    "elements": [
                        {
                            "id": "3fd6846e",
                            "settings": {
                                "title": "experience in numbers",
                                "align_mobile": "center",
                                "_margin": {
                                    "unit": "px",
                                    "top": "24",
                                    "right": "0",
                                    "bottom": "48",
                                    "left": "0",
                                    "isLinked": false
                                },
                                "_animation": "fadeInLeft",
                                "align_tablet": "center"
                            },
                            "elements": [],
                            "isInner": false,
                            "widgetType": "heading",
                            "elType": "widget"
                        },
                        {
                            "id": "7c500405",
                            "settings": {
                                "editor": "<p>Adipiscing elit. Ut elit tellus, luctus nec ullamcorper mattis Etiam porta sem malesuada magna mollis\u00a0<\/p>",
                                "_margin": {
                                    "unit": "px",
                                    "top": "0",
                                    "right": "0",
                                    "bottom": "48",
                                    "left": "0",
                                    "isLinked": ""
                                },
                                "align_mobile": "center",
                                "align_tablet": "center",
                                "_margin_tablet": {
                                    "unit": "px",
                                    "top": "0",
                                    "right": "0",
                                    "bottom": "0",
                                    "left": "0",
                                    "isLinked": false
                                },
                                "_padding_tablet": {
                                    "unit": "px",
                                    "top": "0",
                                    "right": "0",
                                    "bottom": "0",
                                    "left": "0",
                                    "isLinked": false
                                },
                                "_animation": "fadeInLeft",
                                "_element_width_tablet": "initial",
                                "_element_width_mobile": "inherit",
                                "_element_custom_width_tablet": {
                                    "unit": "%",
                                    "size": 55,
                                    "sizes": []
                                }
                            },
                            "elements": [],
                            "isInner": false,
                            "widgetType": "text-editor",
                            "elType": "widget"
                        },
                        {
                            "id": "599cec26",
                            "settings": {
                                "structure": "20",
                                "margin": {
                                    "unit": "px",
                                    "top": "0",
                                    "right": "0",
                                    "bottom": "24",
                                    "left": "0",
                                    "isLinked": ""
                                }
                            },
                            "elements": [
                                {
                                    "id": "31a9210f",
                                    "settings": {
                                        "_column_size": "50",
                                        "align_mobile": "center",
                                        "align_tablet": "center"
                                    },
                                    "elements": [
                                        {
                                            "id": "79a21d52",
                                            "settings": {
                                                "selected_icon": {
                                                    "value": "icon dticon-newspaper-outline",
                                                    "library": "dticon"
                                                },
                                                "size": {
                                                    "unit": "px",
                                                    "size": "29",
                                                    "sizes": []
                                                },
                                                "_margin": {
                                                    "unit": "px",
                                                    "top": "17",
                                                    "right": "20",
                                                    "bottom": "0",
                                                    "left": "0",
                                                    "isLinked": ""
                                                },
                                                "_element_width": "auto",
                                                "__globals__": {
                                                    "primary_color": "globals\/colors?id=primary"
                                                }
                                            },
                                            "elements": [],
                                            "isInner": false,
                                            "widgetType": "icon",
                                            "elType": "widget"
                                        },
                                        {
                                            "id": "391b72c9",
                                            "settings": {
                                                "ending_number": "76",
                                                "title": "",
                                                "_element_width": "initial",
                                                "_element_custom_width": {
                                                    "unit": "%",
                                                    "size": "",
                                                    "sizes": []
                                                },
                                                "__globals__": {
                                                    "typography_title_typography": "globals\/typography?id=primary",
                                                    "typography_number_typography": "globals\/typography?id=86332c7"
                                                },
                                                "_margin": {
                                                    "unit": "px",
                                                    "top": "0",
                                                    "right": "0",
                                                    "bottom": "0",
                                                    "left": "0",
                                                    "isLinked": ""
                                                }
                                            },
                                            "elements": [],
                                            "isInner": false,
                                            "widgetType": "counter",
                                            "elType": "widget"
                                        },
                                        {
                                            "id": "70305b87",
                                            "settings": {
                                                "title": "Coach around the world",
                                                "header_size": "div",
                                                "_margin": {
                                                    "unit": "px",
                                                    "top": "0",
                                                    "right": "0",
                                                    "bottom": "0",
                                                    "left": "55",
                                                    "isLinked": ""
                                                },
                                                "__globals__": {
                                                    "typography_typography": "globals\/typography?id=primary"
                                                },
                                                "align_tablet": "center",
                                                "_margin_tablet": {
                                                    "unit": "px",
                                                    "top": "0",
                                                    "right": "0",
                                                    "bottom": "0",
                                                    "left": "0",
                                                    "isLinked": false
                                                },
                                                "_padding_tablet": {
                                                    "unit": "px",
                                                    "top": "0",
                                                    "right": "0",
                                                    "bottom": "0",
                                                    "left": "0",
                                                    "isLinked": false
                                                },
                                                "_element_width_tablet": "inherit"
                                            },
                                            "elements": [],
                                            "isInner": false,
                                            "widgetType": "heading",
                                            "elType": "widget"
                                        }
                                    ],
                                    "isInner": "1",
                                    "elType": "column"
                                },
                                {
                                    "id": "5fe2a2e3",
                                    "settings": {
                                        "_column_size": "50",
                                        "align_mobile": "center",
                                        "align_tablet": "center"
                                    },
                                    "elements": [
                                        {
                                            "id": "3106a294",
                                            "settings": {
                                                "selected_icon": {
                                                    "value": "icon dticon-stats-chart-outline",
                                                    "library": "dticon"
                                                },
                                                "size": {
                                                    "unit": "px",
                                                    "size": "29",
                                                    "sizes": []
                                                },
                                                "_margin": {
                                                    "unit": "px",
                                                    "top": "17",
                                                    "right": "20",
                                                    "bottom": "0",
                                                    "left": "0",
                                                    "isLinked": ""
                                                },
                                                "_element_width": "auto",
                                                "__globals__": {
                                                    "primary_color": "globals\/colors?id=primary"
                                                }
                                            },
                                            "elements": [],
                                            "isInner": false,
                                            "widgetType": "icon",
                                            "elType": "widget"
                                        },
                                        {
                                            "id": "7fe2d5aa",
                                            "settings": {
                                                "ending_number": "89",
                                                "title": "",
                                                "_element_width": "initial",
                                                "_element_custom_width": {
                                                    "unit": "%",
                                                    "size": "",
                                                    "sizes": []
                                                },
                                                "__globals__": {
                                                    "typography_title_typography": "globals\/typography?id=primary",
                                                    "typography_number_typography": "globals\/typography?id=86332c7"
                                                },
                                                "suffix": "k",
                                                "_margin": {
                                                    "unit": "px",
                                                    "top": "0",
                                                    "right": "0",
                                                    "bottom": "0",
                                                    "left": "0",
                                                    "isLinked": ""
                                                }
                                            },
                                            "elements": [],
                                            "isInner": false,
                                            "widgetType": "counter",
                                            "elType": "widget"
                                        },
                                        {
                                            "id": "74bdd3ea",
                                            "settings": {
                                                "title": "People's life affected",
                                                "header_size": "div",
                                                "_margin": {
                                                    "unit": "px",
                                                    "top": "0",
                                                    "right": "0",
                                                    "bottom": "0",
                                                    "left": "55",
                                                    "isLinked": ""
                                                },
                                                "__globals__": {
                                                    "typography_typography": "globals\/typography?id=primary"
                                                },
                                                "align_tablet": "center",
                                                "_margin_tablet": {
                                                    "unit": "px",
                                                    "top": "0",
                                                    "right": "0",
                                                    "bottom": "0",
                                                    "left": "0",
                                                    "isLinked": false
                                                }
                                            },
                                            "elements": [],
                                            "isInner": false,
                                            "widgetType": "heading",
                                            "elType": "widget"
                                        }
                                    ],
                                    "isInner": "1",
                                    "elType": "column"
                                }
                            ],
                            "isInner": "1",
                            "elType": "section"
                        },
                        {
                            "id": "7b45401c",
                            "settings": {
                                "text": "Get started",
                                "button_box_shadow_box_shadow": {
                                    "horizontal": "0",
                                    "vertical": "0",
                                    "blur": "0",
                                    "spread": "1",
                                    "color": "#333333"
                                },
                                "text_padding": {
                                    "unit": "px",
                                    "top": "8",
                                    "right": "32",
                                    "bottom": "8",
                                    "left": "32",
                                    "isLinked": ""
                                },
                                "__globals__": {
                                    "border_color": "globals\/colors?id=secondary"
                                },
                                "button_hover_border_color": "#02010100",
                                "_element_width": "auto",
                                "_margin": {
                                    "unit": "px",
                                    "top": "0",
                                    "right": "48",
                                    "bottom": "0",
                                    "left": "0",
                                    "isLinked": ""
                                },
                                "_margin_mobile": {
                                    "unit": "px",
                                    "top": "0",
                                    "right": "16",
                                    "bottom": "0",
                                    "left": "0",
                                    "isLinked": ""
                                },
                                "align_mobile": "center",
                                "_element_width_mobile": "inherit"
                            },
                            "elements": [],
                            "isInner": false,
                            "widgetType": "button",
                            "elType": "widget"
                        },
                        {
                            "id": "4b9773c8",
                            "settings": {
                                "text": "Learn more",
                                "size": "md",
                                "icon_align": "right",
                                "icon_indent": {
                                    "unit": "px",
                                    "size": "7",
                                    "sizes": []
                                },
                                "button_text_color": "#333333",
                                "background_color": "rgba(2, 1, 1, 0)",
                                "_margin": {
                                    "unit": "px",
                                    "top": "0",
                                    "right": "0",
                                    "bottom": "0",
                                    "left": "0",
                                    "isLinked": ""
                                },
                                "_element_width": "auto",
                                "button_box_shadow_box_shadow_type": "yes",
                                "button_box_shadow_box_shadow": {
                                    "horizontal": "0",
                                    "vertical": "0",
                                    "blur": "10",
                                    "spread": "0",
                                    "color": "rgba(0, 0, 0, 0)"
                                },
                                "border_border": "solid",
                                "border_width": {
                                    "unit": "px",
                                    "top": "0",
                                    "right": "0",
                                    "bottom": "0",
                                    "left": "0",
                                    "isLinked": "1"
                                },
                                "text_padding": {
                                    "unit": "px",
                                    "top": "0",
                                    "right": "0",
                                    "bottom": "0",
                                    "left": "0",
                                    "isLinked": ""
                                },
                                "hover_color": "#4B8B61",
                                "typography_line_height": {
                                    "unit": "em",
                                    "size": "0.9",
                                    "sizes": []
                                },
                                "selected_icon": {
                                    "value": "icon dticon-chevron-forward-outline",
                                    "library": "dticon"
                                },
                                "typography_typography": "custom",
                                "align_mobile": "center",
                                "_padding_mobile": {
                                    "unit": "px",
                                    "top": "24",
                                    "right": "0",
                                    "bottom": "0",
                                    "left": "0",
                                    "isLinked": false
                                },
                                "_element_width_mobile": "inherit"
                            },
                            "elements": [],
                            "isInner": false,
                            "widgetType": "button",
                            "elType": "widget"
                        }
                    ],
                    "isInner": "",
                    "elType": "column"
                },
                {
                    "id": "16368a2c",
                    "settings": {
                        "_column_size": "33",
                        "_inline_size": "2.001",
                        "content_position": "center",
                        "align": "center",
                        "_inline_size_tablet": "100",
                        "hide_tablet": "hidden-tablet",
                        "hide_mobile": "hidden-phone"
                    },
                    "elements": [
                        {
                            "id": "36c419c3",
                            "settings": {
                                "width": {
                                    "unit": "px",
                                    "size": "1",
                                    "sizes": []
                                },
                                "text": "Divider",
                                "weight": {
                                    "unit": "px",
                                    "size": "470",
                                    "sizes": []
                                },
                                "gap": {
                                    "unit": "px",
                                    "size": "0",
                                    "sizes": []
                                },
                                "__globals__": {
                                    "color": "globals\/colors?id=785b64d"
                                },
                                "align": "center"
                            },
                            "elements": [],
                            "isInner": false,
                            "widgetType": "divider",
                            "elType": "widget"
                        }
                    ],
                    "isInner": "",
                    "elType": "column"
                },
                {
                    "id": "5498d9f3",
                    "settings": {
                        "_column_size": "33",
                        "_inline_size": "61.717",
                        "_inline_size_tablet": "100",
                        "padding_tablet": {
                            "unit": "px",
                            "top": "0",
                            "right": "0",
                            "bottom": "0",
                            "left": "0",
                            "isLinked": ""
                        }
                    },
                    "elements": [
                        {
                            "id": "5575809b",
                            "settings": {
                                "gap": "wider",
                                "structure": "30"
                            },
                            "elements": [
                                {
                                    "id": "65fb0c8b",
                                    "settings": {
                                        "_column_size": "33",
                                        "align_mobile": "center",
                                        "align_tablet": "center"
                                    },
                                    "elements": [
                                        {
                                            "id": "770c126a",
                                            "settings": {
                                                "selected_icon": {
                                                    "value": "icon dticon-golf-outline",
                                                    "library": "dticon"
                                                },
                                                "size": {
                                                    "unit": "px",
                                                    "size": "50",
                                                    "sizes": []
                                                },
                                                "_margin": {
                                                    "unit": "px",
                                                    "top": "0",
                                                    "right": "0",
                                                    "bottom": "24",
                                                    "left": "0",
                                                    "isLinked": ""
                                                },
                                                "_padding": {
                                                    "unit": "px",
                                                    "top": "0",
                                                    "right": "0",
                                                    "bottom": "0",
                                                    "left": "0",
                                                    "isLinked": ""
                                                },
                                                "_background_background": "classic",
                                                "_border_radius": {
                                                    "unit": "%",
                                                    "top": "50",
                                                    "right": "50",
                                                    "bottom": "50",
                                                    "left": "50",
                                                    "isLinked": "1"
                                                },
                                                "_element_width": "initial",
                                                "_element_custom_width": {
                                                    "unit": "px",
                                                    "size": "76",
                                                    "sizes": []
                                                },
                                                "__globals__": {
                                                    "_background_color": "",
                                                    "primary_color": "globals\/colors?id=primary"
                                                },
                                                "align": "left",
                                                "primary_color": "#2B2B2B",
                                                "align_tablet": "center",
                                                "align_mobile": "center"
                                            },
                                            "elements": [],
                                            "isInner": false,
                                            "widgetType": "icon",
                                            "elType": "widget"
                                        },
                                        {
                                            "id": "24fb5160",
                                            "settings": {
                                                "title": "Solid Preparation",
                                                "header_size": "h4",
                                                "align": "left",
                                                "_margin": {
                                                    "unit": "px",
                                                    "top": "0",
                                                    "right": "0",
                                                    "bottom": "16",
                                                    "left": "0",
                                                    "isLinked": ""
                                                },
                                                "align_mobile": "center",
                                                "align_tablet": "center"
                                            },
                                            "elements": [],
                                            "isInner": false,
                                            "widgetType": "heading",
                                            "elType": "widget"
                                        },
                                        {
                                            "id": "4cd9ef38",
                                            "settings": {
                                                "editor": "<p>Nec ullamcorper mattis pulvinar dapibus leo lorem\u00a0<\/p>",
                                                "_margin": {
                                                    "unit": "px",
                                                    "top": "0",
                                                    "right": "0",
                                                    "bottom": "-18",
                                                    "left": "0",
                                                    "isLinked": ""
                                                },
                                                "align_mobile": "center",
                                                "align_tablet": "center"
                                            },
                                            "elements": [],
                                            "isInner": false,
                                            "widgetType": "text-editor",
                                            "elType": "widget"
                                        }
                                    ],
                                    "isInner": "1",
                                    "elType": "column"
                                },
                                {
                                    "id": "605fb698",
                                    "settings": {
                                        "_column_size": "33",
                                        "align_mobile": "center",
                                        "align_tablet": "center"
                                    },
                                    "elements": [
                                        {
                                            "id": "622b2a3f",
                                            "settings": {
                                                "selected_icon": {
                                                    "value": "icon dticon-key-outline",
                                                    "library": "dticon"
                                                },
                                                "size": {
                                                    "unit": "px",
                                                    "size": "50",
                                                    "sizes": []
                                                },
                                                "_margin": {
                                                    "unit": "px",
                                                    "top": "0",
                                                    "right": "0",
                                                    "bottom": "24",
                                                    "left": "0",
                                                    "isLinked": ""
                                                },
                                                "_padding": {
                                                    "unit": "px",
                                                    "top": "0",
                                                    "right": "0",
                                                    "bottom": "0",
                                                    "left": "0",
                                                    "isLinked": ""
                                                },
                                                "_background_background": "classic",
                                                "_border_radius": {
                                                    "unit": "%",
                                                    "top": "50",
                                                    "right": "50",
                                                    "bottom": "50",
                                                    "left": "50",
                                                    "isLinked": "1"
                                                },
                                                "_element_width": "initial",
                                                "_element_custom_width": {
                                                    "unit": "px",
                                                    "size": "76",
                                                    "sizes": []
                                                },
                                                "__globals__": {
                                                    "_background_color": "",
                                                    "primary_color": "globals\/colors?id=primary"
                                                },
                                                "align": "left",
                                                "primary_color": "#2B2B2B",
                                                "align_tablet": "center",
                                                "align_mobile": "center"
                                            },
                                            "elements": [],
                                            "isInner": false,
                                            "widgetType": "icon",
                                            "elType": "widget"
                                        },
                                        {
                                            "id": "7a14241",
                                            "settings": {
                                                "title": "Coaching Principles\n",
                                                "header_size": "h4",
                                                "align": "left",
                                                "_margin": {
                                                    "unit": "px",
                                                    "top": "0",
                                                    "right": "0",
                                                    "bottom": "16",
                                                    "left": "0",
                                                    "isLinked": ""
                                                },
                                                "align_mobile": "center",
                                                "align_tablet": "center"
                                            },
                                            "elements": [],
                                            "isInner": false,
                                            "widgetType": "heading",
                                            "elType": "widget"
                                        },
                                        {
                                            "id": "a09ff1a",
                                            "settings": {
                                                "editor": "<p>Nec ullamcorper mattis pulvinar dapibus leo lorem\u00a0<\/p>",
                                                "_margin": {
                                                    "unit": "px",
                                                    "top": "0",
                                                    "right": "0",
                                                    "bottom": "-18",
                                                    "left": "0",
                                                    "isLinked": ""
                                                },
                                                "align_mobile": "center",
                                                "align_tablet": "center"
                                            },
                                            "elements": [],
                                            "isInner": false,
                                            "widgetType": "text-editor",
                                            "elType": "widget"
                                        }
                                    ],
                                    "isInner": "1",
                                    "elType": "column"
                                },
                                {
                                    "id": "2680794d",
                                    "settings": {
                                        "_column_size": "33",
                                        "align_mobile": "center",
                                        "align_tablet": "center"
                                    },
                                    "elements": [
                                        {
                                            "id": "7bed4b1d",
                                            "settings": {
                                                "selected_icon": {
                                                    "value": "icon dticon-receipt-outline",
                                                    "library": "dticon"
                                                },
                                                "size": {
                                                    "unit": "px",
                                                    "size": "50",
                                                    "sizes": []
                                                },
                                                "_margin": {
                                                    "unit": "px",
                                                    "top": "0",
                                                    "right": "0",
                                                    "bottom": "24",
                                                    "left": "0",
                                                    "isLinked": ""
                                                },
                                                "_padding": {
                                                    "unit": "px",
                                                    "top": "0",
                                                    "right": "0",
                                                    "bottom": "0",
                                                    "left": "0",
                                                    "isLinked": ""
                                                },
                                                "_background_background": "classic",
                                                "_border_radius": {
                                                    "unit": "%",
                                                    "top": "50",
                                                    "right": "50",
                                                    "bottom": "50",
                                                    "left": "50",
                                                    "isLinked": "1"
                                                },
                                                "_element_width": "initial",
                                                "_element_custom_width": {
                                                    "unit": "px",
                                                    "size": "76",
                                                    "sizes": []
                                                },
                                                "__globals__": {
                                                    "_background_color": "",
                                                    "primary_color": "globals\/colors?id=primary"
                                                },
                                                "align": "left",
                                                "primary_color": "#2B2B2B",
                                                "align_tablet": "center",
                                                "align_mobile": "center"
                                            },
                                            "elements": [],
                                            "isInner": false,
                                            "widgetType": "icon",
                                            "elType": "widget"
                                        },
                                        {
                                            "id": "e43bcd2",
                                            "settings": {
                                                "title": "Coaching Applications\n",
                                                "header_size": "h4",
                                                "align": "left",
                                                "_margin": {
                                                    "unit": "px",
                                                    "top": "0",
                                                    "right": "0",
                                                    "bottom": "16",
                                                    "left": "0",
                                                    "isLinked": ""
                                                },
                                                "align_mobile": "center",
                                                "align_tablet": "center"
                                            },
                                            "elements": [],
                                            "isInner": false,
                                            "widgetType": "heading",
                                            "elType": "widget"
                                        },
                                        {
                                            "id": "5096fbc6",
                                            "settings": {
                                                "editor": "<p>Nec ullamcorper mattis pulvinar dapibus leo lorem\u00a0<\/p>",
                                                "_margin": {
                                                    "unit": "px",
                                                    "top": "0",
                                                    "right": "0",
                                                    "bottom": "-18",
                                                    "left": "0",
                                                    "isLinked": ""
                                                },
                                                "align_mobile": "center",
                                                "align_tablet": "center"
                                            },
                                            "elements": [],
                                            "isInner": false,
                                            "widgetType": "text-editor",
                                            "elType": "widget"
                                        }
                                    ],
                                    "isInner": "1",
                                    "elType": "column"
                                }
                            ],
                            "isInner": "1",
                            "elType": "section"
                        },
                        {
                            "id": "82eb7d1",
                            "settings": {
                                "gap": "wider",
                                "structure": "30"
                            },
                            "elements": [
                                {
                                    "id": "4f73f40",
                                    "settings": {
                                        "_column_size": "33",
                                        "align_mobile": "center",
                                        "align_tablet": "center"
                                    },
                                    "elements": [
                                        {
                                            "id": "4d65e8bd",
                                            "settings": {
                                                "selected_icon": {
                                                    "value": "icon dticon-hourglass-outline",
                                                    "library": "dticon"
                                                },
                                                "size": {
                                                    "unit": "px",
                                                    "size": "50",
                                                    "sizes": []
                                                },
                                                "_margin": {
                                                    "unit": "px",
                                                    "top": "0",
                                                    "right": "0",
                                                    "bottom": "24",
                                                    "left": "0",
                                                    "isLinked": ""
                                                },
                                                "_padding": {
                                                    "unit": "px",
                                                    "top": "0",
                                                    "right": "0",
                                                    "bottom": "0",
                                                    "left": "0",
                                                    "isLinked": ""
                                                },
                                                "_background_background": "classic",
                                                "_border_radius": {
                                                    "unit": "%",
                                                    "top": "50",
                                                    "right": "50",
                                                    "bottom": "50",
                                                    "left": "50",
                                                    "isLinked": "1"
                                                },
                                                "_element_width": "initial",
                                                "_element_custom_width": {
                                                    "unit": "px",
                                                    "size": "76",
                                                    "sizes": []
                                                },
                                                "__globals__": {
                                                    "_background_color": "",
                                                    "primary_color": "globals\/colors?id=primary"
                                                },
                                                "align": "left",
                                                "primary_color": "#2B2B2B",
                                                "align_tablet": "center",
                                                "align_mobile": "center"
                                            },
                                            "elements": [],
                                            "isInner": false,
                                            "widgetType": "icon",
                                            "elType": "widget"
                                        },
                                        {
                                            "id": "1dc603a8",
                                            "settings": {
                                                "title": "Time Management\n",
                                                "header_size": "h4",
                                                "align": "left",
                                                "_margin": {
                                                    "unit": "px",
                                                    "top": "0",
                                                    "right": "0",
                                                    "bottom": "16",
                                                    "left": "0",
                                                    "isLinked": ""
                                                },
                                                "align_mobile": "center",
                                                "align_tablet": "center"
                                            },
                                            "elements": [],
                                            "isInner": false,
                                            "widgetType": "heading",
                                            "elType": "widget"
                                        },
                                        {
                                            "id": "26cb995f",
                                            "settings": {
                                                "editor": "<p>Nec ullamcorper mattis pulvinar dapibus leo lorem\u00a0<\/p>",
                                                "_margin": {
                                                    "unit": "px",
                                                    "top": "0",
                                                    "right": "0",
                                                    "bottom": "-18",
                                                    "left": "0",
                                                    "isLinked": ""
                                                },
                                                "align_mobile": "center",
                                                "align_tablet": "center"
                                            },
                                            "elements": [],
                                            "isInner": false,
                                            "widgetType": "text-editor",
                                            "elType": "widget"
                                        }
                                    ],
                                    "isInner": "1",
                                    "elType": "column"
                                },
                                {
                                    "id": "43858713",
                                    "settings": {
                                        "_column_size": "33",
                                        "align_tablet": "center",
                                        "align_mobile": "center"
                                    },
                                    "elements": [
                                        {
                                            "id": "735f16ef",
                                            "settings": {
                                                "selected_icon": {
                                                    "value": "icon dticon-magnet-outline",
                                                    "library": "dticon"
                                                },
                                                "size": {
                                                    "unit": "px",
                                                    "size": "50",
                                                    "sizes": []
                                                },
                                                "_margin": {
                                                    "unit": "px",
                                                    "top": "0",
                                                    "right": "0",
                                                    "bottom": "24",
                                                    "left": "0",
                                                    "isLinked": ""
                                                },
                                                "_padding": {
                                                    "unit": "px",
                                                    "top": "0",
                                                    "right": "0",
                                                    "bottom": "0",
                                                    "left": "0",
                                                    "isLinked": ""
                                                },
                                                "_background_background": "classic",
                                                "_border_radius": {
                                                    "unit": "%",
                                                    "top": "50",
                                                    "right": "50",
                                                    "bottom": "50",
                                                    "left": "50",
                                                    "isLinked": "1"
                                                },
                                                "_element_width": "initial",
                                                "_element_custom_width": {
                                                    "unit": "px",
                                                    "size": "76",
                                                    "sizes": []
                                                },
                                                "__globals__": {
                                                    "_background_color": "",
                                                    "primary_color": "globals\/colors?id=primary"
                                                },
                                                "align": "left",
                                                "primary_color": "#2B2B2B",
                                                "align_tablet": "center",
                                                "align_mobile": "center"
                                            },
                                            "elements": [],
                                            "isInner": false,
                                            "widgetType": "icon",
                                            "elType": "widget"
                                        },
                                        {
                                            "id": "17830401",
                                            "settings": {
                                                "title": "Email coaching",
                                                "header_size": "h4",
                                                "align": "left",
                                                "_margin": {
                                                    "unit": "px",
                                                    "top": "0",
                                                    "right": "0",
                                                    "bottom": "16",
                                                    "left": "0",
                                                    "isLinked": ""
                                                },
                                                "align_tablet": "center"
                                            },
                                            "elements": [],
                                            "isInner": false,
                                            "widgetType": "heading",
                                            "elType": "widget"
                                        },
                                        {
                                            "id": "382060e1",
                                            "settings": {
                                                "editor": "<p>Nec ullamcorper mattis pulvinar dapibus leo lorem\u00a0<\/p>",
                                                "_margin": {
                                                    "unit": "px",
                                                    "top": "0",
                                                    "right": "0",
                                                    "bottom": "-18",
                                                    "left": "0",
                                                    "isLinked": ""
                                                },
                                                "align_tablet": "center"
                                            },
                                            "elements": [],
                                            "isInner": false,
                                            "widgetType": "text-editor",
                                            "elType": "widget"
                                        }
                                    ],
                                    "isInner": "1",
                                    "elType": "column"
                                },
                                {
                                    "id": "2f196861",
                                    "settings": {
                                        "_column_size": "33",
                                        "align_mobile": "center",
                                        "align_tablet": "center"
                                    },
                                    "elements": [
                                        {
                                            "id": "1b286363",
                                            "settings": {
                                                "selected_icon": {
                                                    "value": "icon dticon-medal-outline",
                                                    "library": "dticon"
                                                },
                                                "size": {
                                                    "unit": "px",
                                                    "size": "50",
                                                    "sizes": []
                                                },
                                                "_margin": {
                                                    "unit": "px",
                                                    "top": "0",
                                                    "right": "0",
                                                    "bottom": "24",
                                                    "left": "0",
                                                    "isLinked": ""
                                                },
                                                "_padding": {
                                                    "unit": "px",
                                                    "top": "0",
                                                    "right": "0",
                                                    "bottom": "0",
                                                    "left": "0",
                                                    "isLinked": ""
                                                },
                                                "_background_background": "classic",
                                                "_border_radius": {
                                                    "unit": "%",
                                                    "top": "50",
                                                    "right": "50",
                                                    "bottom": "50",
                                                    "left": "50",
                                                    "isLinked": "1"
                                                },
                                                "_element_width": "initial",
                                                "_element_custom_width": {
                                                    "unit": "px",
                                                    "size": "76",
                                                    "sizes": []
                                                },
                                                "__globals__": {
                                                    "_background_color": "",
                                                    "primary_color": "globals\/colors?id=primary"
                                                },
                                                "align": "left",
                                                "primary_color": "#2B2B2B",
                                                "align_tablet": "center",
                                                "align_mobile": "center"
                                            },
                                            "elements": [],
                                            "isInner": false,
                                            "widgetType": "icon",
                                            "elType": "widget"
                                        },
                                        {
                                            "id": "574cd5e5",
                                            "settings": {
                                                "title": "Monthly session",
                                                "header_size": "h4",
                                                "align": "left",
                                                "_margin": {
                                                    "unit": "px",
                                                    "top": "0",
                                                    "right": "0",
                                                    "bottom": "16",
                                                    "left": "0",
                                                    "isLinked": ""
                                                },
                                                "align_mobile": "center",
                                                "align_tablet": "center"
                                            },
                                            "elements": [],
                                            "isInner": false,
                                            "widgetType": "heading",
                                            "elType": "widget"
                                        },
                                        {
                                            "id": "1cc103f8",
                                            "settings": {
                                                "editor": "<p>Nec ullamcorper mattis pulvinar dapibus leo lorem\u00a0<\/p>",
                                                "_margin": {
                                                    "unit": "px",
                                                    "top": "0",
                                                    "right": "0",
                                                    "bottom": "-18",
                                                    "left": "0",
                                                    "isLinked": ""
                                                },
                                                "align_mobile": "center",
                                                "align_tablet": "center"
                                            },
                                            "elements": [],
                                            "isInner": false,
                                            "widgetType": "text-editor",
                                            "elType": "widget"
                                        }
                                    ],
                                    "isInner": "1",
                                    "elType": "column"
                                }
                            ],
                            "isInner": "1",
                            "elType": "section"
                        }
                    ],
                    "isInner": "",
                    "elType": "column"
                }
            ],
            "isInner": "",
            "elType": "section"
        },
        {
            "id": "2a1df42",
            "settings": {
                "structure": "30",
                "gap": "wider",
                "padding": {
                    "unit": "px",
                    "top": "96",
                    "right": "0",
                    "bottom": "0",
                    "left": "0",
                    "isLinked": false
                },
                "padding_tablet": {
                    "unit": "px",
                    "top": "0",
                    "right": "0",
                    "bottom": "0",
                    "left": "0",
                    "isLinked": false
                },
                "background_background": "classic",
                "shape_divider_top": "waves",
                "__globals__": {
                    "background_color": "globals\/colors?id=d3ae19d"
                }
            },
            "elements": [
                {
                    "id": "6f3c060a",
                    "settings": {
                        "_column_size": 33,
                        "_inline_size": 37.105,
                        "content_position": "center"
                    },
                    "elements": [
                        {
                            "id": "2a1966a6",
                            "settings": {
                                "title": "Our processing steps",
                                "align_mobile": "center",
                                "_margin": {
                                    "unit": "px",
                                    "top": "0",
                                    "right": "0",
                                    "bottom": "0",
                                    "left": "0",
                                    "isLinked": false
                                },
                                "_animation": "fadeInLeft"
                            },
                            "elements": [],
                            "isInner": false,
                            "widgetType": "heading",
                            "elType": "widget"
                        }
                    ],
                    "isInner": false,
                    "elType": "column"
                },
                {
                    "id": "5405a35b",
                    "settings": {
                        "_column_size": 33,
                        "_inline_size": 7.105,
                        "_inline_size_tablet": 2
                    },
                    "elements": [],
                    "isInner": false,
                    "elType": "column"
                },
                {
                    "id": "393ce89f",
                    "settings": {
                        "_column_size": 33,
                        "_inline_size": 55.122,
                        "_inline_size_tablet": 59,
                        "content_position": "center"
                    },
                    "elements": [
                        {
                            "id": "3145c757",
                            "settings": {
                                "editor": "<p>Ut enim ad minima veniam, quis nostrum exercitationem ullam corporis suscipit laboriosam, nisi ut aliquid ex ea commodi consequatur<\/p>",
                                "align_mobile": "center"
                            },
                            "elements": [],
                            "isInner": false,
                            "widgetType": "text-editor",
                            "elType": "widget"
                        }
                    ],
                    "isInner": false,
                    "elType": "column"
                }
            ],
            "isInner": false,
            "elType": "section"
        },
        {
            "id": "40d0b3ef",
            "settings": {
                "gap": "wider",
                "structure": "40",
                "margin": {
                    "unit": "px",
                    "top": "0",
                    "right": "0",
                    "bottom": "0",
                    "left": "0",
                    "isLinked": ""
                },
                "padding": {
                    "unit": "px",
                    "top": "48",
                    "right": "0",
                    "bottom": "96",
                    "left": "0",
                    "isLinked": ""
                },
                "padding_tablet": {
                    "unit": "px",
                    "top": "0",
                    "right": "0",
                    "bottom": "0",
                    "left": "0",
                    "isLinked": ""
                },
                "background_background": "classic",
                "__globals__": {
                    "background_color": "globals\/colors?id=d3ae19d"
                }
            },
            "elements": [
                {
                    "id": "1b7364eb",
                    "settings": {
                        "_column_size": 25,
                        "_inline_size": null,
                        "_inline_size_tablet": 50
                    },
                    "elements": [
                        {
                            "id": "35c0e869",
                            "settings": {
                                "source": "external_url",
                                "source_external_url": {
                                    "url": "https:\/\/assets1.lottiefiles.com\/private_files\/lf30_6kfxkqz2.json",
                                    "is_external": "",
                                    "nofollow": "",
                                    "custom_attributes": ""
                                },
                                "width": {
                                    "unit": "%",
                                    "size": 65,
                                    "sizes": []
                                },
                                "width_tablet": {
                                    "unit": "%",
                                    "size": 50,
                                    "sizes": []
                                }
                            },
                            "elements": [],
                            "isInner": false,
                            "widgetType": "lottie",
                            "elType": "widget"
                        },
                        {
                            "id": "7033fd98",
                            "settings": {
                                "title": "Idea",
                                "header_size": "h5",
                                "align": "center",
                                "_margin": {
                                    "unit": "px",
                                    "top": "0",
                                    "right": "0",
                                    "bottom": "16",
                                    "left": "0",
                                    "isLinked": ""
                                }
                            },
                            "elements": [],
                            "isInner": false,
                            "widgetType": "heading",
                            "elType": "widget"
                        },
                        {
                            "id": "415dc428",
                            "settings": {
                                "editor": "<p>Sed posuere consectetur est at pro lobortis. Ut elit tellus, luctus nec lis ullamcorper mattis, pulvinar\u00a0<\/p>",
                                "align": "center"
                            },
                            "elements": [],
                            "isInner": false,
                            "widgetType": "text-editor",
                            "elType": "widget"
                        }
                    ],
                    "isInner": "",
                    "elType": "column"
                },
                {
                    "id": "2c1579e9",
                    "settings": {
                        "_column_size": 25,
                        "_inline_size": null,
                        "_inline_size_tablet": 50
                    },
                    "elements": [
                        {
                            "id": "3ef610cb",
                            "settings": {
                                "source": "external_url",
                                "source_external_url": {
                                    "url": "https:\/\/assets1.lottiefiles.com\/private_files\/lf30_ohuluwv5.json",
                                    "is_external": "",
                                    "nofollow": "",
                                    "custom_attributes": ""
                                },
                                "width": {
                                    "unit": "%",
                                    "size": 65,
                                    "sizes": []
                                },
                                "width_tablet": {
                                    "unit": "%",
                                    "size": 50,
                                    "sizes": []
                                }
                            },
                            "elements": [],
                            "isInner": false,
                            "widgetType": "lottie",
                            "elType": "widget"
                        },
                        {
                            "id": "5b2858af",
                            "settings": {
                                "title": "Development",
                                "header_size": "h5",
                                "align": "center",
                                "_margin": {
                                    "unit": "px",
                                    "top": "0",
                                    "right": "0",
                                    "bottom": "16",
                                    "left": "0",
                                    "isLinked": ""
                                }
                            },
                            "elements": [],
                            "isInner": false,
                            "widgetType": "heading",
                            "elType": "widget"
                        },
                        {
                            "id": "3684c24a",
                            "settings": {
                                "editor": "<p>Sed posuere consectetur est at pro lobortis. Ut elit tellus, luctus nec lis ullamcorper mattis, pulvinar\u00a0<\/p>",
                                "align": "center"
                            },
                            "elements": [],
                            "isInner": false,
                            "widgetType": "text-editor",
                            "elType": "widget"
                        }
                    ],
                    "isInner": "",
                    "elType": "column"
                },
                {
                    "id": "78511998",
                    "settings": {
                        "_column_size": 25,
                        "_inline_size": null,
                        "_inline_size_tablet": 50
                    },
                    "elements": [
                        {
                            "id": "3065fb56",
                            "settings": {
                                "source": "external_url",
                                "source_external_url": {
                                    "url": "https:\/\/assets1.lottiefiles.com\/private_files\/lf30_z4egjhy6.json",
                                    "is_external": "",
                                    "nofollow": "",
                                    "custom_attributes": ""
                                },
                                "width": {
                                    "unit": "%",
                                    "size": 65,
                                    "sizes": []
                                },
                                "width_tablet": {
                                    "unit": "%",
                                    "size": 50,
                                    "sizes": []
                                }
                            },
                            "elements": [],
                            "isInner": false,
                            "widgetType": "lottie",
                            "elType": "widget"
                        },
                        {
                            "id": "5e92001c",
                            "settings": {
                                "title": "SEO",
                                "header_size": "h5",
                                "align": "center",
                                "_margin": {
                                    "unit": "px",
                                    "top": "0",
                                    "right": "0",
                                    "bottom": "16",
                                    "left": "0",
                                    "isLinked": ""
                                }
                            },
                            "elements": [],
                            "isInner": false,
                            "widgetType": "heading",
                            "elType": "widget"
                        },
                        {
                            "id": "7a13430a",
                            "settings": {
                                "editor": "<p>Sed posuere consectetur est at pro lobortis. Ut elit tellus, luctus nec lis ullamcorper mattis, pulvinar\u00a0<\/p>",
                                "align": "center"
                            },
                            "elements": [],
                            "isInner": false,
                            "widgetType": "text-editor",
                            "elType": "widget"
                        }
                    ],
                    "isInner": "",
                    "elType": "column"
                },
                {
                    "id": "75cd35f",
                    "settings": {
                        "_column_size": 25,
                        "_inline_size": null,
                        "_inline_size_tablet": 50
                    },
                    "elements": [
                        {
                            "id": "4c910618",
                            "settings": {
                                "source": "external_url",
                                "source_external_url": {
                                    "url": "https:\/\/assets1.lottiefiles.com\/private_files\/lf30_ckbseqwg.json",
                                    "is_external": "",
                                    "nofollow": "",
                                    "custom_attributes": ""
                                },
                                "width": {
                                    "unit": "%",
                                    "size": 65,
                                    "sizes": []
                                },
                                "width_tablet": {
                                    "unit": "%",
                                    "size": 50,
                                    "sizes": []
                                }
                            },
                            "elements": [],
                            "isInner": false,
                            "widgetType": "lottie",
                            "elType": "widget"
                        },
                        {
                            "id": "6696b3ed",
                            "settings": {
                                "title": "Rangking",
                                "header_size": "h5",
                                "align": "center",
                                "_margin": {
                                    "unit": "px",
                                    "top": "0",
                                    "right": "0",
                                    "bottom": "16",
                                    "left": "0",
                                    "isLinked": ""
                                }
                            },
                            "elements": [],
                            "isInner": false,
                            "widgetType": "heading",
                            "elType": "widget"
                        },
                        {
                            "id": "c8cd9b2",
                            "settings": {
                                "editor": "<p>Sed posuere consectetur est at pro lobortis. Ut elit tellus, luctus nec lis ullamcorper mattis, pulvinar\u00a0<\/p>",
                                "align": "center"
                            },
                            "elements": [],
                            "isInner": false,
                            "widgetType": "text-editor",
                            "elType": "widget"
                        }
                    ],
                    "isInner": false,
                    "elType": "column"
                }
            ],
            "isInner": "",
            "elType": "section"
        },
        {
            "id": "50b92f0a",
            "settings": {
                "gap": "wider",
                "padding": {
                    "unit": "px",
                    "top": "0",
                    "right": "0",
                    "bottom": "96",
                    "left": "0",
                    "isLinked": false
                },
                "padding_tablet": {
                    "unit": "px",
                    "top": "48",
                    "right": "0",
                    "bottom": "48",
                    "left": "0",
                    "isLinked": false
                },
                "structure": "30",
                "background_background": "classic",
                "__globals__": {
                    "background_color": "globals\/colors?id=d3ae19d"
                },
                "shape_divider_bottom": "waves"
            },
            "elements": [
                {
                    "id": "14dd4a98",
                    "settings": {
                        "_column_size": 33,
                        "_inline_size": 16
                    },
                    "elements": [],
                    "isInner": false,
                    "elType": "column"
                },
                {
                    "id": "3d79e377",
                    "settings": {
                        "_column_size": 33,
                        "_inline_size": 67.332
                    },
                    "elements": [
                        {
                            "id": "139bdce2",
                            "settings": {
                                "title": "Interested? Let's get in touch!",
                                "align": "center",
                                "_margin": {
                                    "unit": "px",
                                    "top": "0",
                                    "right": "0",
                                    "bottom": "24",
                                    "left": "0",
                                    "isLinked": false
                                },
                                "_animation": "fadeInDown"
                            },
                            "elements": [],
                            "isInner": false,
                            "widgetType": "heading",
                            "elType": "widget"
                        },
                        {
                            "id": "5e407c63",
                            "settings": {
                                "align": "center",
                                "editor": "<p>Et harum quidem rerum facilis est et expedita distinctio. Nam libero tempore, cum soluta nobis est eligendi optio cumque nihil impedit quo minus id quod maxime placeat facere possimus<\/p>",
                                "_animation": "fadeInUp"
                            },
                            "elements": [],
                            "isInner": false,
                            "widgetType": "text-editor",
                            "elType": "widget"
                        },
                        {
                            "id": "10cd381d",
                            "settings": {
                                "text": "Get started",
                                "align": "center",
                                "_animation": "fadeInUp"
                            },
                            "elements": [],
                            "isInner": false,
                            "widgetType": "button",
                            "elType": "widget"
                        }
                    ],
                    "isInner": false,
                    "elType": "column"
                },
                {
                    "id": "4fb9c546",
                    "settings": {
                        "_column_size": 33,
                        "_inline_size": 16
                    },
                    "elements": [],
                    "isInner": false,
                    "elType": "column"
                }
            ],
            "isInner": false,
            "elType": "section"
        }
    ]
}